Pruebas Experimentales/Medicion de tiempos/Prueba de Resistencia/Medicion_de_tiempos_prueba_de_resistencia.csv

#Digilent WaveForms Oscilloscope Acquisition
#Device Name: Discovery2
#Serial Number: SN:210321B0DECA
#Date Time: 2023-12-11 23:41:10.776
#Sample rate: 400000Hz
#Samples: 8192
#Trigger: Source: Channel 2 Type: Edge Condition: Rising Level: 1.25 V Hyst.: Auto HoldOff: 0 s
#Channel 1: Range: 20 mV/div Offset: -2.96 V Attenuation: 1 X Sample Mode: Average
#Channel 2: Range: 500 mV/div Offset: -2 V Attenuation: 1 X Sample Mode: Average
#Power Supplies: ON
#Positive Supply: ON
#Voltage: 3.1 V
#Negative Supply: OFF
#Voltage: -1 V

Time (s),Channel 1 (V),Channel 2 (V)
-0.004238875568265142,3.050787066260679,-0.002805743479061373
-0.004236375568265141,3.050787066260679,-0.002472000149445819
-0.00423387556826514,3.049793916415505,-0.002138256819831012
-0.004231375568265141,3.050456016312288,-0.002805743479061373
-0.004228875568265141,3.05111811620907,-0.002138256819830708
-0.004226375568265142,3.050787066260679,-0.002138256819830708
-0.004223875568265141,3.050124966363896,-0.002138256819830708
-0.004221375568265142,3.05111811620907,-0.002472000149445667
-0.004218875568265141,3.050787066260679,-0.002472000149445819
-0.00421637556826514,3.049462866467114,-0.002805743479061222
-0.004213875568265141,3.049793916415505,-0.002472000149445819
-0.004211375568265141,3.050787066260678,-0.002472000149445819
-0.004208875568265141,3.050124966363896,-0.002472000149445819
-0.004206375568265141,3.049793916415505,-0.002472000149445819
-0.004203875568265142,3.050456016312288,-0.002138256819830708
-0.004201375568265141,3.050124966363896,-0.001804513490215154
-0.004198875568265142,3.049131816518722,-0.002138256819830557
-0.004196375568265141,3.049462866467114,-0.002805743479061373
-0.00419387556826514,3.050456016312287,-0.002472000149445515
-0.004191375568265141,3.049793916415505,-0.001804513490215154
-0.004188875568265141,3.049793916415505,-0.002472000149445971
-0.004186375568265142,3.050456016312288,-0.002805743479061373
-0.004183875568265141,3.050787066260679,-0.002138256819830708
-0.004181375568265142,3.050124966363897,-0.002138256819830708
-0.004178875568265141,3.049793916415505,-0.002805743479061373
-0.004176375568265142,3.050456016312287,-0.002805743479061373
-0.004173875568265141,3.050124966363896,-0.002138256819830708
-0.00417137556826514,3.049462866467114,-0.00213825681983086
-0.004168875568265141,3.049793916415505,-0.002472000149445819
-0.004166375568265141,3.050787066260679,-0.002472000149445819
-0.004163875568265142,3.050456016312288,-0.002138256819830708
-0.004161375568265141,3.049462866467114,-0.002805743479061373
-0.004158875568265142,3.050456016312287,-0.002805743479061373
-0.004156375568265141,3.050456016312288,-0.002138256819830708
-0.004153875568265142,3.049793916415505,-0.002138256819830708
-0.004151375568265141,3.049462866467114,-0.002472000149445819
-0.00414887556826514,3.050124966363896,-0.002805743479061222
-0.004146375568265141,3.050456016312288,-0.002472000149445819
-0.004143875568265141,3.049793916415505,-0.002138256819830708
-0.004141375568265142,3.049793916415505,-0.002472000149445819
-0.004138875568265141,3.050456016312288,-0.002805743479061373
-0.004136375568265142,3.050456016312288,-0.002138256819831012
-0.004133875568265141,3.049793916415505,-0.002138256819830708
-0.00413137556826514,3.049793916415505,-0.002472000149445971
-0.004128875568265141,3.050124966363896,-0.002805743479061373
-0.004126375568265141,3.050787066260678,-0.002472000149445667
-0.004123875568265141,3.049793916415505,-0.002138256819830708
-0.004121375568265141,3.050124966363896,-0.002472000149445819
-0.004118875568265142,3.050124966363896,-0.002472000149445819
-0.004116375568265141,3.05111811620907,-0.002138256819830708
-0.004113875568265142,3.050456016312288,-0.002138256819830708
-0.004111375568265141,3.049462866467114,-0.002805743479061373
-0.00410887556826514,3.049793916415505,-0.002805743479061222
-0.004106375568265141,3.050456016312288,-0.002472000149445819
-0.004103875568265141,3.050124966363896,-0.002138256819831012
-0.004101375568265142,3.050124966363896,-0.002805743479061373
-0.004098875568265141,3.050787066260679,-0.002472000149445819
-0.004096375568265142,3.050456016312288,-0.002472000149445819
-0.004093875568265141,3.050124966363896,-0.002472000149445819
-0.004091375568265142,3.050787066260678,-0.002472000149445819
-0.004088875568265141,3.05111811620907,-0.002472000149445819
-0.00408637556826514,3.050124966363896,-0.001804513490215457
-0.004083875568265141,3.049793916415505,-0.002472000149445819
-0.004081375568265141,3.050124966363896,-0.002805743479061373
-0.004078875568265142,3.050456016312288,-0.002472000149445819
-0.004076375568265141,3.050124966363896,-0.001804513490215154
-0.004073875568265142,3.049793916415505,-0.002472000149445515
-0.004071375568265141,3.050124966363896,-0.002472000149445819
-0.004068875568265142,3.050787066260678,-0.00213825681983086
-0.004066375568265141,3.049462866467114,-0.002138256819830708
-0.00406387556826514,3.049793916415505,-0.002472000149445667
-0.004061375568265141,3.050456016312288,-0.002138256819830708
-0.004058875568265141,3.049793916415505,-0.001804513490215154
-0.004056375568265142,3.049462866467114,-0.002138256819830708
-0.004053875568265141,3.050456016312288,-0.002472000149445819
-0.004051375568265142,3.050456016312288,-0.001804513490215457
-0.004048875568265141,3.049462866467114,-0.001804513490215154
-0.00404637556826514,3.050787066260679,-0.002472000149445667
-0.004043875568265141,3.050787066260679,-0.002138256819830708
-0.004041375568265141,3.049793916415505,-0.002138256819830708
-0.004038875568265141,3.049793916415505,-0.002138256819830708
-0.004036375568265141,3.050456016312288,-0.002472000149445819
-0.004033875568265142,3.049793916415505,-0.002138256819830708
-0.004031375568265141,3.049462866467114,-0.002472000149445819
-0.004028875568265142,3.050456016312287,-0.003139486808676624
-0.004026375568265141,3.050456016312288,-0.002138256819830708
-0.00402387556826514,3.049793916415505,-0.00213825681983086
-0.004021375568265141,3.049793916415505,-0.002472000149445819
-0.004018875568265141,3.05111811620907,-0.002472000149445515
-0.004016375568265142,3.050787066260679,-0.001804513490215154
-0.004013875568265141,3.049793916415505,-0.002138256819830708
-0.004011375568265142,3.049462866467114,-0.002472000149445819
-0.004008875568265141,3.050456016312288,-0.002472000149445819
-0.004006375568265142,3.050456016312288,-0.00213825681983086
-0.004003875568265141,3.049793916415505,-0.002138256819830708
-0.00400137556826514,3.049793916415505,-0.002472000149445971
-0.003998875568265141,3.050124966363896,-0.002805743479061373
-0.003996375568265141,3.049793916415505,-0.001804513490215154
-0.003993875568265142,3.049462866467114,-0.002138256819830708
-0.003991375568265141,3.050787066260679,-0.002138256819830708
-0.003988875568265142,3.050124966363897,-0.002472000149445667
-0.003986375568265141,3.049131816518722,-0.002472000149445819
-0.003983875568265142,3.049131816518722,-0.002472000149445819
-0.003981375568265141,3.050456016312288,-0.002472000149445819
-0.00397887556826514,3.050124966363896,-0.002138256819830708
-0.003976375568265141,3.049131816518722,-0.002138256819830708
-0.003973875568265141,3.049793916415505,-0.002472000149445819
-0.003971375568265142,3.050456016312288,-0.002138256819830708
-0.003968875568265141,3.049793916415505,-0.002138256819830708
-0.003966375568265142,3.049793916415505,-0.002472000149445667
-0.003963875568265141,3.050456016312288,-0.002472000149445819
-0.00396137556826514,3.050456016312287,-0.002138256819830557
-0.003958875568265141,3.049462866467114,-0.001804513490215154
-0.00395637556826514,3.050124966363896,-0.002805743479061222
-0.003953875568265141,3.050456016312288,-0.002472000149445819
-0.003951375568265141,3.049462866467114,-0.002138256819830708
-0.003948875568265142,3.050124966363896,-0.002472000149445819
-0.003946375568265141,3.050456016312288,-0.002138256819830708
-0.003943875568265142,3.049793916415505,-0.002138256819830708
-0.003941375568265141,3.049793916415505,-0.002472000149445819
-0.00393887556826514,3.05111811620907,-0.002472000149445667
-0.003936375568265141,3.05111811620907,-0.002138256819830708
-0.003933875568265141,3.050124966363897,-0.002805743479061373
-0.003931375568265142,3.050787066260679,-0.002805743479061373
-0.003928875568265141,3.051449166157461,-0.002138256819830708
-0.003926375568265142,3.050456016312288,-0.002138256819830708
-0.003923875568265141,3.050124966363896,-0.002472000149445819
-0.003921375568265142,3.05111811620907,-0.002472000149445819
-0.003918875568265141,3.051449166157461,-0.002138256819830708
-0.00391637556826514,3.050456016312288,-0.001804513490215457
-0.003913875568265141,3.050124966363896,-0.002472000149445819
-0.003911375568265141,3.050456016312288,-0.002805743479061373
-0.003908875568265142,3.050787066260679,-0.002805743479061373
-0.003906375568265141,3.05111811620907,-0.002472000149445819
-0.003903875568265142,3.050456016312288,-0.00213825681983086
-0.003901375568265141,3.049793916415505,-0.002472000149445819
-0.003898875568265142,3.050456016312287,-0.002472000149445819
-0.003896375568265141,3.050787066260679,-0.002472000149445819
-0.00389387556826514,3.050456016312287,-0.001804513490215457
-0.003891375568265141,3.049462866467114,-0.002472000149445819
-0.003888875568265141,3.050124966363896,-0.002805743479061373
-0.003886375568265142,3.050787066260679,-0.002472000149445819
-0.003883875568265141,3.050124966363896,-0.002138256819830708
-0.003881375568265142,3.049793916415505,-0.002138256819830708
-0.003878875568265141,3.049793916415505,-0.002805743479061373
-0.003876375568265142,3.050456016312287,-0.002472000149445971
-0.003873875568265141,3.050124966363896,-0.002138256819830708
-0.00387137556826514,3.049793916415505,-0.002472000149445819
-0.003868875568265141,3.050124966363896,-0.002472000149445819
-0.003866375568265141,3.050456016312288,-0.002472000149445819
-0.003863875568265142,3.050124966363896,-0.002138256819830708
-0.003861375568265141,3.049793916415505,-0.002472000149445819
-0.003858875568265142,3.050456016312287,-0.002472000149445819
-0.003856375568265141,3.050787066260679,-0.002138256819830708
-0.00385387556826514,3.049462866467114,-0.002472000149445971
-0.003851375568265141,3.049793916415505,-0.002805743479061373
-0.003848875568265141,3.05111811620907,-0.002472000149445667
-0.003846375568265142,3.049793916415505,-0.002138256819830708
-0.003843875568265141,3.049462866467114,-0.002472000149445819
-0.003841375568265142,3.050787066260679,-0.002138256819830708
-0.003838875568265141,3.050124966363896,-0.002138256819830708
-0.003836375568265142,3.049793916415505,-0.00280574347906107
-0.003833875568265141,3.050124966363896,-0.002805743479061373
-0.00383137556826514,3.050456016312287,-0.002138256819831164
-0.003828875568265141,3.049793916415505,-0.003139486808676928
-0.003826375568265141,3.050456016312288,-0.002472000149445971
-0.003823875568265142,3.050456016312288,-0.002805743479061373
-0.003821375568265141,3.049462866467114,-0.002138256819830708
-0.003818875568265142,3.050124966363896,-0.00280574347906107
-0.003816375568265141,3.050787066260679,-0.001804513490215154
-0.003813875568265142,3.050124966363897,-0.001804513490215154
-0.003811375568265141,3.049793916415505,-0.002138256819830708
-0.00380887556826514,3.050124966363896,-0.003139486808676472
-0.003806375568265141,3.050456016312288,-0.002138256819830708
-0.003803875568265141,3.049793916415505,-0.002138256819830708
-0.003801375568265142,3.049793916415505,-0.002472000149445819
-0.003798875568265141,3.050787066260679,-0.002472000149445819
-0.003796375568265142,3.050124966363897,-0.002472000149445819
-0.003793875568265141,3.049462866467114,-0.002138256819830708
-0.003791375568265142,3.049462866467114,-0.00280574347906107
-0.003788875568265141,3.050456016312288,-0.002472000149445819
-0.00378637556826514,3.050456016312287,-0.002472000149445819
-0.003783875568265141,3.049793916415505,-0.002472000149445819
-0.003781375568265141,3.050456016312288,-0.003139486808676928
-0.003778875568265142,3.050787066260679,-0.002138256819830708
-0.003776375568265141,3.049793916415505,-0.002138256819830708
-0.003773875568265142,3.049793916415505,-0.00280574347906107
-0.003771375568265141,3.050787066260679,-0.002805743479061373
-0.00376887556826514,3.050456016312287,-0.00213825681983086
-0.003766375568265141,3.049462866467114,-0.002472000149445819
-0.003763875568265141,3.049793916415505,-0.003139486808676624
-0.003761375568265142,3.050787066260679,-0.002472000149445819
-0.003758875568265141,3.050124966363896,-0.002138256819830708
-0.003756375568265142,3.049462866467114,-0.002138256819830708
-0.003753875568265141,3.050456016312288,-0.002138256819830708
-0.003751375568265142,3.050124966363896,-0.002138256819830708
-0.003748875568265141,3.049793916415505,-0.002472000149445819
-0.00374637556826514,3.050456016312288,-0.002472000149445515
-0.003743875568265141,3.050124966363896,-0.001804513490215154
-0.003741375568265141,3.049131816518722,-0.00213825681983086
-0.003738875568265142,3.049793916415505,-0.002472000149445819
-0.003736375568265141,3.050787066260679,-0.002138256819830708
-0.003733875568265142,3.049793916415505,-0.002138256819830708
-0.003731375568265141,3.049793916415505,-0.002472000149445819
-0.003728875568265142,3.050456016312287,-0.002472000149445819
-0.003726375568265141,3.047476566776766,-0.002472000149445819
-0.00372387556826514,3.047476566776766,-0.002805743479061373
-0.003721375568265141,3.048469716621939,-0.002805743479061373
-0.003718875568265141,3.048800766570331,-0.001804513490215154
-0.003716375568265142,3.048469716621939,-0.002138256819830708
-0.003713875568265141,3.048800766570331,-0.002805743479061373
-0.003711375568265142,3.050124966363896,-0.002805743479061373
-0.003708875568265141,3.050124966363896,-0.002138256819830708
-0.003706375568265142,3.049131816518722,-0.002138256819830708
-0.003703875568265141,3.048800766570331,-0.002472000149445819
-0.00370137556826514,3.049793916415505,-0.00280574347906107
-0.003698875568265141,3.050456016312288,-0.002138256819830708
-0.003696375568265141,3.050124966363896,-0.002138256819830708
-0.003693875568265142,3.049462866467114,-0.002138256819830708
-0.003691375568265141,3.049793916415505,-0.002138256819830708
-0.003688875568265142,3.050456016312287,-0.002138256819830708
-0.003686375568265141,3.050124966363896,-0.002138256819830708
-0.00368387556826514,3.047476566776766,-0.00213825681983086
-0.003681375568265141,3.047807616725157,-0.002472000149445819
-0.003678875568265141,3.049131816518722,-0.002472000149445667
-0.003676375568265141,3.049462866467114,-0.002138256819830708
-0.003673875568265141,3.048800766570331,-0.001470770160600043
-0.003671375568265142,3.048800766570331,-0.002472000149445819
-0.003668875568265141,3.049462866467114,-0.002138256819830708
-0.003666375568265142,3.049793916415505,-0.002138256819830708
-0.003663875568265141,3.049131816518722,-0.002138256819830708
-0.00366137556826514,3.049131816518722,-0.002472000149445819
-0.003658875568265141,3.049462866467114,-0.002472000149445819
-0.003656375568265141,3.050456016312288,-0.002138256819830557
-0.003653875568265142,3.050124966363896,-0.001804513490215154
-0.003651375568265141,3.049462866467114,-0.002138256819830708
-0.003648875568265142,3.049793916415505,-0.002472000149445667
-0.003646375568265141,3.050456016312288,-0.002472000149445819
-0.003643875568265142,3.050124966363896,-0.00213825681983086
-0.003641375568265141,3.049131816518722,-0.002472000149445819
-0.00363887556826514,3.050124966363897,-0.002472000149445819
-0.003636375568265141,3.050787066260679,-0.002472000149445819
-0.003633875568265141,3.049793916415505,-0.001804513490215154
-0.003631375568265142,3.049793916415505,-0.002138256819830708
-0.003628875568265141,3.050787066260679,-0.002472000149445819
-0.003626375568265142,3.050787066260679,-0.001804513490215457
-0.003623875568265141,3.050124966363896,-0.001804513490215154
-0.003621375568265142,3.050787066260678,-0.002138256819830557
-0.003618875568265141,3.050787066260679,-0.002472000149445819
-0.00361637556826514,3.050456016312288,-0.002138256819830708
-0.003613875568265141,3.050124966363896,-0.002138256819830708
-0.003611375568265141,3.050787066260679,-0.002472000149445819
-0.003608875568265142,3.050787066260679,-0.002138256819830708
-0.003606375568265141,3.050787066260679,-0.002138256819830708
-0.003603875568265142,3.050124966363897,-0.00280574347906107
-0.003601375568265141,3.050787066260679,-0.002805743479061373
-0.00359887556826514,3.05111811620907,-0.002138256819830557
-0.003596375568265141,3.050456016312288,-0.001804513490215154
-0.003593875568265141,3.049793916415505,-0.001804513490215609
-0.003591375568265141,3.050456016312288,-0.002805743479061373
-0.003588875568265141,3.050456016312288,-0.002472000149445819
-0.003586375568265142,3.050456016312288,-0.002138256819830708
-0.003583875568265141,3.049793916415505,-0.002138256819830708
-0.003581375568265142,3.050124966363896,-0.002472000149445667
-0.003578875568265141,3.050787066260679,-0.002472000149445819
-0.00357637556826514,3.050456016312287,-0.002138256819830557
-0.003573875568265141,3.049793916415505,-0.001804513490215154
-0.003571375568265141,3.050124966363897,-0.002138256819830708
-0.003568875568265142,3.05111811620907,-0.002138256819830708
-0.003566375568265141,3.050456016312288,-0.002138256819830708
-0.003563875568265142,3.049793916415505,-0.002472000149445667
-0.003561375568265141,3.050124966363896,-0.002805743479061373
-0.003558875568265142,3.051449166157461,-0.002805743479061373
-0.003556375568265141,3.05111811620907,-0.002138256819830708
-0.00355387556826514,3.050787066260679,-0.001804513490215306
-0.003551375568265141,3.050456016312288,-0.002138256819830708
-0.003548875568265141,3.050787066260679,-0.002472000149445819
-0.003546375568265142,3.05111811620907,-0.002138256819830708
-0.003543875568265141,3.050124966363896,-0.002138256819830708
-0.003541375568265142,3.050456016312288,-0.002138256819830708
-0.003538875568265141,3.050787066260679,-0.002138256819830708
-0.003536375568265142,3.049793916415505,-0.002138256819830708
-0.003533875568265141,3.050124966363896,-0.002805743479061373
-0.00353137556826514,3.050456016312288,-0.002805743479060918
-0.003528875568265141,3.050456016312288,-0.001804513490215154
-0.003526375568265141,3.049793916415505,-0.002472000149445819
-0.003523875568265142,3.050456016312288,-0.002805743479061373
-0.003521375568265141,3.050456016312288,-0.001804513490215154
-0.003518875568265142,3.049793916415505,-0.002472000149445515
-0.003516375568265141,3.050456016312288,-0.002805743479061373
-0.00351387556826514,3.050456016312288,-0.001804513490215306
-0.003511375568265141,3.050124966363896,-0.002138256819830708
-0.003508875568265141,3.050456016312288,-0.002138256819830708
-0.003506375568265141,3.050787066260679,-0.002138256819830708
-0.003503875568265141,3.050124966363896,-0.001804513490215154
-0.003501375568265142,3.050124966363896,-0.002805743479061373
-0.003498875568265141,3.050787066260679,-0.002138256819830708
-0.003496375568265142,3.050787066260679,-0.002138256819830708
-0.003493875568265141,3.049793916415505,-0.002472000149445819
-0.00349137556826514,3.050456016312288,-0.002472000149445515
-0.003488875568265141,3.050787066260679,-0.001804513490215154
-0.003486375568265141,3.050124966363896,-0.002138256819831012
-0.003483875568265142,3.049793916415505,-0.002805743479061373
-0.003481375568265141,3.050456016312288,-0.002805743479061373
-0.003478875568265142,3.050787066260679,-0.002138256819831012
-0.003476375568265141,3.049793916415505,-0.002138256819830708
-0.003473875568265142,3.050124966363896,-0.002138256819830708
-0.003471375568265141,3.050787066260679,-0.002805743479061373
-0.00346887556826514,3.050124966363896,-0.00213825681983086
-0.003466375568265141,3.049462866467114,-0.002472000149445819
-0.003463875568265141,3.050124966363896,-0.003139486808676928
-0.003461375568265142,3.050787066260679,-0.002472000149445819
-0.003458875568265141,3.050456016312288,-0.002138256819830708
-0.003456375568265142,3.049793916415505,-0.002138256819830708
