Pruebas Experimentales/Medicion de tiempos ADC/Medicion_Wet_y_Temp_Adaptador2_cap104_LedON_zoomINadc.csv

#Digilent WaveForms Oscilloscope Acquisition
#Device Name: Discovery2
#Serial Number: SN:210321B0DECA
#Date Time: 2023-12-07 20:43:37.904
#Sample rate: 7.69231e+06Hz
#Samples: 8192
#Trigger: Source: Channel 2 Type: Edge Condition: Rising Level: 2.5 V Hyst.: Auto HoldOff: 0 s
#Channel 1: Range: 100 mV/div Offset: -2.95 V Attenuation: 1 X Sample Mode: Average
#Channel 2: Range: 500 mV/div Offset: -2 V Attenuation: 1 X Sample Mode: Average
#Power Supplies: ON
#Positive Supply: ON
#Voltage: 3.1 V
#Negative Supply: OFF
#Voltage: -1 V

Time (s),Channel 1 (V),Channel 2 (V)
-0.0001325622122526519,2.936302679806336,-0.003473230138292038
-0.000132432212252652,2.936302679806336,-0.002805743479061373
-0.000132302212252652,2.936964779703118,-0.003139486808676928
-0.000132172212252652,2.936964779703118,-0.003139486808676928
-0.000132042212252652,2.936633729754727,-0.003139486808676928
-0.000131912212252652,2.936964779703118,-0.002472000149446122
-0.0001317822122526519,2.936964779703118,-0.003139486808676928
-0.0001316522122526519,2.936964779703118,-0.003139486808676624
-0.0001315222122526519,2.936964779703118,-0.002472000149445819
-0.000131392212252652,2.936964779703118,-0.002472000149445819
-0.000131262212252652,2.936964779703118,-0.003139486808676928
-0.000131132212252652,2.936964779703118,-0.004140716797522703
-0.000131002212252652,2.937626879599901,-0.003473230138292038
-0.000130872212252652,2.937626879599901,-0.002805743479061677
-0.000130742212252652,2.937626879599901,-0.004140716797522096
-0.0001306122122526519,2.938288979496683,-0.002805743479061525
-0.0001304822122526519,2.937626879599901,-0.003139486808676928
-0.000130352212252652,2.937957929548292,-0.002472000149445819
-0.000130222212252652,2.937957929548292,-0.003139486808676928
-0.000130092212252652,2.937957929548292,-0.002805743479061373
-0.000129962212252652,2.937626879599901,-0.002805743479061373
-0.000129832212252652,2.937626879599901,-0.002472000149445971
-0.000129702212252652,2.937626879599901,-0.002472000149445819
-0.0001295722122526519,2.937626879599901,-0.002472000149445667
-0.0001294422122526519,2.937957929548292,-0.002138256819831164
-0.0001293122122526519,2.937295829651509,-0.003139486808676928
-0.000129182212252652,2.937957929548292,-0.002472000149445819
-0.000129052212252652,2.936964779703118,-0.002805743479061373
-0.000128922212252652,2.938620029445075,-0.002138256819830708
-0.000128792212252652,2.938620029445075,-0.002472000149445667
-0.000128662212252652,2.937957929548292,-0.00213825681983086
-0.0001285322122526519,2.938620029445075,-0.002805743479061222
-0.0001284022122526519,2.938288979496683,-0.002472000149445667
-0.0001282722122526519,2.938620029445075,-0.002138256819830708
-0.000128142212252652,2.938288979496683,-0.002472000149445819
-0.000128012212252652,2.938951079393466,-0.002472000149445819
-0.000127882212252652,2.938288979496683,-0.002805743479061373
-0.000127752212252652,2.938620029445075,-0.002805743479061373
-0.000127622212252652,2.938951079393466,-0.001804513490215609
-0.0001274922122526519,2.938951079393466,-0.003139486808676928
-0.0001273622122526519,2.938620029445075,-0.003139486808676624
-0.0001272322122526519,2.937957929548292,-0.002472000149445819
-0.000127102212252652,2.936633729754727,-0.002138256819830708
-0.000126972212252652,2.935640579909553,-0.002805743479061373
-0.000126842212252652,2.935971629857944,-0.003139486808676928
-0.000126712212252652,2.935640579909553,-0.002472000149445819
-0.000126582212252652,2.935309529961162,-0.003139486808676624
-0.000126452212252652,2.935640579909553,-0.002472000149446122
-0.0001263222122526519,2.935971629857944,-0.002805743479061525
-0.0001261922122526519,2.935640579909553,-0.003139486808676928
-0.000126062212252652,2.935971629857944,-0.003139486808676928
-0.000125932212252652,2.936633729754727,-0.002138256819830708
-0.000125802212252652,2.935971629857944,-0.002805743479061373
-0.000125672212252652,2.936302679806336,-0.002805743479061373
-0.000125542212252652,2.936302679806336,-0.003139486808676776
-0.000125412212252652,2.936302679806336,-0.002805743479061525
-0.0001252822122526519,2.935971629857945,-0.002472000149445819
-0.0001251522122526519,2.936633729754727,-0.002472000149446274
-0.0001250222122526519,2.936633729754727,-0.003473230138292038
-0.000124892212252652,2.936302679806336,-0.003806973467907593
-0.000124762212252652,2.936633729754727,-0.002472000149445819
-0.000124632212252652,2.93497848001277,-0.001804513490215154
-0.000124502212252652,2.933654280219205,-0.003806973467906682
-0.000124372212252652,2.933654280219205,-0.003806973467907593
-0.0001242422122526519,2.933323230270814,-0.003139486808676928
-0.0001241122122526519,2.933654280219205,-0.003139486808676928
-0.0001239822122526519,2.934647430064379,-0.003139486808676928
-0.000123852212252652,2.934647430064379,-0.002805743479061373
-0.000123722212252652,2.935309529961162,-0.003806973467907593
-0.000123592212252652,2.93497848001277,-0.003139486808676928
-0.000123462212252652,2.935640579909553,-0.002805743479061373
-0.000123332212252652,2.935640579909553,-0.003473230138291735
-0.000123202212252652,2.935640579909553,-0.003473230138292038
-0.0001230722122526519,2.936302679806335,-0.002805743479061525
-0.0001229422122526519,2.935640579909553,-0.003139486808676928
-0.000122812212252652,2.936302679806336,-0.001804513490215154
-0.000122682212252652,2.936633729754727,-0.003139486808676928
-0.000122552212252652,2.936302679806336,-0.002805743479061373
-0.000122422212252652,2.936633729754727,-0.002472000149445819
-0.000122292212252652,2.936964779703118,-0.002472000149445819
-0.000122162212252652,2.935971629857945,-0.002472000149445819
-0.0001220322122526519,2.933654280219205,-0.003473230138291583
-0.0001219022122526519,2.933985330167596,-0.002472000149446122
-0.0001217722122526519,2.933323230270814,-0.003139486808676928
-0.000121642212252652,2.933654280219205,-0.003139486808676928
-0.000121512212252652,2.934316380115987,-0.002472000149445819
-0.000121382212252652,2.93497848001277,-0.001470770160600043
-0.000121252212252652,2.934647430064379,-0.002472000149445363
-0.000121122212252652,2.934647430064379,-0.003139486808676624
-0.0001209922122526519,2.934647430064379,-0.002472000149445819
-0.0001208622122526519,2.93497848001277,-0.002472000149445971
-0.0001207322122526519,2.934647430064379,-0.002805743479061373
-0.000120602212252652,2.93497848001277,-0.002805743479061373
-0.000120472212252652,2.934647430064379,-0.002805743479061373
-0.000120342212252652,2.93497848001277,-0.002805743479061373
-0.000120212212252652,2.935309529961162,-0.002472000149445971
-0.000120082212252652,2.935640579909553,-0.002472000149445819
-0.0001199522122526519,2.93497848001277,-0.002805743479061525
-0.0001198222122526519,2.935309529961162,-0.003139486808676776
-0.0001196922122526519,2.935640579909553,-0.002805743479061373
-0.000119562212252652,2.935971629857944,-0.002472000149445819
-0.000119432212252652,2.935971629857944,-0.002472000149445819
-0.000119302212252652,2.935640579909553,-0.002805743479061373
-0.000119172212252652,2.936633729754727,-0.002472000149445819
-0.000119042212252652,2.935971629857945,-0.00213825681983086
-0.000118912212252652,2.935971629857944,-0.001804513490215306
-0.0001187822122526519,2.936633729754727,-0.00280574347906107
-0.0001186522122526519,2.936633729754727,-0.002138256819830708
-0.000118522212252652,2.936633729754727,-0.002138256819830708
-0.000118392212252652,2.937295829651509,-0.001470770160600043
-0.000118262212252652,2.936964779703118,-0.002138256819830708
-0.000118132212252652,2.936633729754727,-0.002805743479061373
-0.000118002212252652,2.937295829651509,-0.002472000149445971
-0.000117872212252652,2.936633729754727,-0.002805743479061222
-0.0001177422122526519,2.937295829651509,-0.002138256819831012
-0.0001176122122526519,2.936633729754727,-0.002805743479061677
-0.0001174822122526519,2.937626879599901,-0.003473230138292038
-0.000117352212252652,2.936633729754727,-0.003473230138292038
-0.000117222212252652,2.937295829651509,-0.002138256819830708
-0.000117092212252652,2.936964779703118,-0.001804513490215154
-0.000116962212252652,2.93464743006438,-0.003139486808676321
-0.000116832212252652,2.933654280219205,-0.003473230138291887
-0.0001167022122526519,2.933985330167596,-0.001804513490215609
-0.0001165722122526519,2.933985330167597,-0.002805743479061525
-0.0001164422122526519,2.934647430064379,-0.003139486808676928
-0.000116312212252652,2.93497848001277,-0.003139486808676928
-0.000116182212252652,2.934647430064379,-0.003139486808676928
-0.000116052212252652,2.934647430064379,-0.003473230138292038
-0.000115922212252652,2.93497848001277,-0.003139486808676928
-0.000115792212252652,2.93497848001277,-0.003473230138291887
-0.0001156622122526519,2.935309529961162,-0.003473230138291887
-0.0001155322122526519,2.935309529961162,-0.003139486808676928
-0.0001154022122526519,2.935309529961162,-0.003139486808676928
-0.000115272212252652,2.935640579909553,-0.003473230138292038
-0.000115142212252652,2.936302679806336,-0.003139486808676928
-0.000115012212252652,2.935971629857944,-0.003473230138292038
-0.000114882212252652,2.935309529961162,-0.003139486808676928
-0.000114752212252652,2.935640579909553,-0.002472000149446122
-0.000114622212252652,2.936633729754726,-0.002805743479061222
-0.0001144922122526519,2.936302679806335,-0.002805743479061525
-0.0001143622122526519,2.935640579909554,-0.003139486808676472
-0.000114232212252652,2.936302679806336,-0.002138256819830708
-0.000114102212252652,2.936633729754727,-0.003139486808676928
-0.000113972212252652,2.936633729754727,-0.003139486808676928
-0.000113842212252652,2.936964779703118,-0.002138256819830708
-0.000113712212252652,2.936633729754727,-0.003139486808676472
-0.000113582212252652,2.936633729754727,-0.003806973467907289
-0.0001134522122526519,2.937295829651509,-0.002805743479061222
-0.0001133222122526519,2.936964779703118,-0.002472000149446426
-0.0001131922122526519,2.937295829651509,-0.003806973467907593
-0.000113062212252652,2.936964779703118,-0.002805743479061373
-0.000112932212252652,2.937295829651509,-0.002472000149445819
-0.000112802212252652,2.937957929548292,-0.002805743479061373
-0.000112672212252652,2.937957929548292,-0.003139486808676776
-0.000112542212252652,2.93729582965151,-0.002138256819831164
-0.0001124122122526519,2.937626879599901,-0.002472000149445819
-0.0001122822122526519,2.937957929548292,-0.002472000149445667
-0.0001121522122526519,2.937957929548292,-0.002138256819830708
-0.000112022212252652,2.936964779703118,-0.001804513490215154
-0.000111892212252652,2.934316380115987,-0.003139486808676928
-0.000111762212252652,2.934316380115987,-0.003139486808676928
-0.000111632212252652,2.934316380115987,-0.002138256819830708
-0.000111502212252652,2.933985330167596,-0.002472000149445667
-0.0001113722122526519,2.934316380115987,-0.002472000149445971
-0.0001112422122526519,2.934316380115987,-0.002805743479061677
-0.0001111122122526519,2.933985330167596,-0.003473230138292038
-0.000110982212252652,2.93497848001277,-0.002472000149445819
-0.000110852212252652,2.935640579909553,-0.002472000149445819
-0.000110722212252652,2.935309529961162,-0.003139486808676928
-0.000110592212252652,2.935309529961162,-0.003139486808676928
-0.000110462212252652,2.935640579909553,-0.002805743479061525
-0.000110332212252652,2.936302679806335,-0.002138256819831012
-0.0001102022122526519,2.936302679806335,-0.003139486808676776
-0.0001100722122526519,2.935309529961162,-0.002805743479061222
-0.0001099422122526519,2.935971629857944,-0.002472000149445819
-0.000109812212252652,2.936633729754727,-0.002805743479061373
-0.000109682212252652,2.936964779703118,-0.002472000149445819
-0.000109552212252652,2.935971629857944,-0.002472000149445819
-0.000109422212252652,2.936302679806336,-0.003139486808676624
-0.000109292212252652,2.936302679806336,-0.002805743479061525
-0.0001091622122526519,2.936302679806336,-0.002138256819831012
-0.0001090322122526519,2.936964779703118,-0.002805743479061373
-0.0001089022122526519,2.937295829651509,-0.002805743479061373
-0.000108772212252652,2.936633729754727,-0.003473230138292038
-0.000108642212252652,2.936633729754727,-0.002472000149445819
-0.000108512212252652,2.936633729754727,-0.001804513490215154
-0.000108382212252652,2.937295829651509,-0.002472000149445515
-0.000108252212252652,2.937295829651509,-0.003139486808676624
-0.0001081222122526519,2.937626879599901,-0.002805743479061525
-0.0001079922122526519,2.937626879599901,-0.00313948680867708
-0.0001078622122526519,2.937626879599901,-0.003473230138292038
-0.000107732212252652,2.937957929548292,-0.002805743479061373
-0.000107602212252652,2.937957929548292,-0.003473230138292038
-0.000107472212252652,2.937957929548292,-0.003473230138292038
-0.000107342212252652,2.937957929548292,-0.002472000149445819
-0.000107212212252652,2.937957929548292,-0.002472000149445819
-0.000107082212252652,2.937957929548292,-0.002472000149445819
-0.0001069522122526519,2.936633729754726,-0.002138256819831012
-0.0001068222122526519,2.93497848001277,-0.002805743479061373
-0.000106692212252652,2.934647430064379,-0.002472000149445819
-0.000106562212252652,2.935309529961162,-0.003139486808676928
-0.000106432212252652,2.934647430064379,-0.003139486808676928
-0.000106302212252652,2.935309529961162,-0.003473230138292038
-0.000106172212252652,2.935309529961162,-0.002805743479061677
-0.000106042212252652,2.935309529961162,-0.003473230138291735
-0.0001059122122526519,2.935309529961162,-0.002805743479061373
-0.0001057822122526519,2.935971629857944,-0.002805743479061525
-0.0001056522122526519,2.935971629857944,-0.003139486808676928
-0.000105522212252652,2.935971629857944,-0.002805743479061373
-0.000105392212252652,2.935640579909553,-0.002805743479061373
-0.000105262212252652,2.936633729754727,-0.002472000149445819
-0.000105132212252652,2.935971629857945,-0.003139486808676624
-0.000105002212252652,2.936302679806336,-0.003139486808676928
-0.0001048722122526519,2.935971629857945,-0.002472000149446122
-0.0001047422122526519,2.936633729754727,-0.003139486808676776
-0.0001046122122526519,2.936633729754727,-0.002805743479061373
-0.000104482212252652,2.936633729754727,-0.003473230138292038
-0.000104352212252652,2.936964779703118,-0.003139486808676928
-0.000104222212252652,2.937295829651509,-0.003139486808676928
-0.000104092212252652,2.936964779703118,-0.003139486808676928
-0.000103962212252652,2.937295829651509,-0.002805743479061525
-0.0001038322122526519,2.937295829651509,-0.003473230138291887
-0.0001037022122526519,2.937626879599901,-0.00313948680867708
-0.0001035722122526519,2.937626879599901,-0.003473230138292038
-0.000103442212252652,2.936964779703118,-0.003473230138292038
-0.000103312212252652,2.937626879599901,-0.002138256819830708
-0.000103182212252652,2.937626879599901,-0.002805743479061373
-0.000103052212252652,2.937295829651509,-0.003139486808676928
-0.000102922212252652,2.937957929548292,-0.0011370268309854
-0.000102792212252652,2.937626879599901,-0.002138256819830253
-0.0001026622122526519,2.937626879599901,-0.00280574347906107
-0.0001025322122526519,2.937295829651509,-0.002138256819830557
-0.000102402212252652,2.937626879599901,-0.001804513490215154
-0.000102272212252652,2.937957929548292,-0.002805743479061373
-0.000102142212252652,2.937626879599901,-0.002472000149445819
-0.000102012212252652,2.937957929548292,-0.002138256819830708
-0.000101882212252652,2.937957929548292,-0.002472000149445667
-0.000101752212252652,2.937957929548292,-0.002805743479061222
-0.0001016222122526519,2.937957929548292,-0.002472000149445971
-0.0001014922122526519,2.938288979496683,-0.002805743479061373
-0.0001013622122526519,2.938288979496683,-0.002805743479061373
-0.000101232212252652,2.938288979496683,-0.002805743479061373
-0.000101102212252652,2.937957929548292,-0.002472000149445819
-0.000100972212252652,2.938288979496683,-0.002805743479061373
-0.000100842212252652,2.937957929548292,-0.002805743479061373
-0.000100712212252652,2.937957929548292,-0.003139486808676776
-0.0001005822122526519,2.937626879599901,-0.00280574347906107
-0.0001004522122526519,2.938288979496683,-0.002138256819830708
-0.0001003222122526519,2.938288979496683,-0.002138256819830708
-0.000100192212252652,2.937626879599901,-0.003139486808676928
-0.000100062212252652,2.938288979496683,-0.002138256819830708
-9.993221225265198e-05,2.937957929548292,-0.002138256819830708
-9.9802212252652e-05,2.938288979496683,-0.002805743479061373
-9.967221225265201e-05,2.938288979496683,-0.002138256819831012
-9.954221225265191e-05,2.937957929548292,-0.001470770160600195
-9.941221225265193e-05,2.9376268795999,-0.001804513490215306
-9.928221225265194e-05,2.935971629857944,-0.002138256819830708
-9.915221225265195e-05,2.93497848001277,-0.001470770160600043
-9.902221225265197e-05,2.934647430064379,-0.002138256819830708
-9.889221225265198e-05,2.935309529961162,-0.002138256819830708
-9.876221225265199e-05,2.935971629857944,-0.002138256819830708
-9.863221225265201e-05,2.935640579909553,-0.001470770160600347
-9.850221225265202e-05,2.936302679806335,-0.001804513490215002
-9.837221225265192e-05,2.935640579909554,-0.002138256819830708
-9.824221225265194e-05,2.936633729754727,-0.002138256819830708
-9.811221225265195e-05,2.936964779703118,-0.002138256819830708
-9.798221225265196e-05,2.936964779703118,-0.001804513490215154
-9.785221225265198e-05,2.936964779703118,-0.002805743479061373
-9.772221225265199e-05,2.936964779703118,-0.003473230138292038
-9.7592212252652e-05,2.937295829651509,-0.002805743479061677
-9.746221225265201e-05,2.937295829651509,-0.002805743479061373
-9.733221225265192e-05,2.936964779703118,-0.003473230138291735
-9.720221225265193e-05,2.936964779703119,-0.002805743479061677
-9.707221225265195e-05,2.937626879599901,-0.003473230138292038
-9.694221225265196e-05,2.937295829651509,-0.004140716797522703
-9.681221225265197e-05,2.935971629857944,-0.002138256819830708
-9.668221225265198e-05,2.934316380115987,-0.002805743479061373
-9.6552212252652e-05,2.933985330167596,-0.004140716797522096
-9.642221225265201e-05,2.934316380115987,-0.004474460127138106
-9.629221225265192e-05,2.934647430064379,-0.00313948680867708
-9.616221225265193e-05,2.93497848001277,-0.003473230138292038
-9.603221225265194e-05,2.935309529961162,-0.003473230138292038
-9.590221225265196e-05,2.93497848001277,-0.003806973467907593
-9.577221225265197e-05,2.935971629857944,-0.003139486808676928
-9.564221225265198e-05,2.935640579909553,-0.003139486808676928
-9.551221225265199e-05,2.935640579909553,-0.003473230138292038
-9.538221225265201e-05,2.935309529961162,-0.002805743479061677
-9.525221225265202e-05,2.935640579909553,-0.003473230138291735
-9.512221225265193e-05,2.935971629857944,-0.003473230138291887
-9.499221225265194e-05,2.935640579909553,-0.003139486808676928
-9.486221225265195e-05,2.936302679806336,-0.003139486808676928
-9.473221225265196e-05,2.935971629857944,-0.002805743479061373
-9.460221225265198e-05,2.936302679806336,-0.002805743479061373
-9.447221225265199e-05,2.936302679806336,-0.003139486808676928
-9.4342212252652e-05,2.936302679806336,-0.002805743479061525
-9.421221225265202e-05,2.936633729754727,-0.002805743479061373
-9.408221225265192e-05,2.936633729754727,-0.002138256819831012
-9.395221225265193e-05,2.936302679806335,-0.002805743479061222
-9.382221225265195e-05,2.935640579909553,-0.002472000149445819
-9.369221225265196e-05,2.936633729754727,-0.002472000149445819
-9.356221225265197e-05,2.936964779703118,-0.002138256819830708
-9.343221225265199e-05,2.936302679806336,-0.002138256819830708
-9.3302212252652e-05,2.936633729754727,-0.002138256819830708
-9.317221225265201e-05,2.936964779703118,-0.002138256819830708
-9.304221225265192e-05,2.936302679806336,-0.003139486808676624
-9.291221225265193e-05,2.936633729754727,-0.002472000149445819
-9.278221225265194e-05,2.937295829651509,-0.002472000149445819
-9.265221225265196e-05,2.936964779703118,-0.003139486808676928
-9.252221225265197e-05,2.937295829651509,-0.002805743479061373
-9.239221225265198e-05,2.937957929548292,-0.001804513490215154
-9.2262212252652e-05,2.937626879599901,-0.002805743479060918
