Pruebas Experimentales/Medicion de tiempos/General/Medicion_tiempos_all_zoomin_temp.csv

#Digilent WaveForms Oscilloscope Acquisition
#Device Name: Discovery2
#Serial Number: SN:210321B0DECA
#Date Time: 2023-12-10 05:59:06.885
#Sample rate: 7.69231e+06Hz
#Samples: 8192
#Trigger: Source: Channel 2 Type: Pulse Condition: Negative Level: 1.6 V LCondition: More Length: 700 us Hyst.: 100 mV HoldOff: 0 s
#Channel 1: Range: 50 mV/div Offset: -2.95 V Attenuation: 1 X Sample Mode: Average
#Channel 2: Range: 500 mV/div Offset: -2 V Attenuation: 1 X Sample Mode: Average
#Power Supplies: OFF
#Positive Supply: Rdy
#Voltage: 3.1 V
#Negative Supply: OFF
#Voltage: -1 V

Time (s),Channel 1 (V),Channel 2 (V)
0.0006675470625004761,2.932992180322422,2.930798123840002
0.0006676770625004761,2.932992180322422,2.931465610499233
0.0006678070625004761,2.935640579909553,2.935804273784232
0.0006679370625004761,2.939613179290249,2.937139247102694
0.0006680670625004761,2.938951079393467,2.938140477091539
0.0006681970625004761,2.937626879599901,2.936471760443464
0.0006683270625004762,2.937957929548293,2.935804273784234
0.0006684570625004762,2.939613179290249,2.938474220421156
0.0006685870625004761,2.940275279187031,2.939141707080386
0.0006687170625004761,2.933654280219205,2.933134327147309
0.0006688470625004761,2.929681680838509,2.92946315052154
0.0006689770625004761,2.931999030477249,2.930798123840002
0.0006691070625004761,2.935971629857944,2.935470530454617
0.0006692370625004761,2.93199903047725,2.93179935382885
0.0006693670625004761,2.872078989818445,2.870056837850033
0.0006694970625004762,2.893928286412256,2.891750154275015
0.0006696270625004762,2.917101782799639,2.915779674007311
0.0006697570625004761,2.927033281251378,2.928461920532694
0.0006698870625004761,2.935309529961162,2.933134327147309
0.0006700170625004761,2.937295829651509,2.936805503773078
0.0006701470625004761,2.940275279187031,2.939475450410002
0.0006702770625004761,2.94259262882577,2.942812883706154
0.0006704070625004761,2.9452410284129,2.945482830343077
0.0006705370625004762,2.946565228206466,2.944481600354232
0.0006706670625004762,2.945903128309685,2.945816573672693
0.0006707970625004761,2.946896278154858,2.945816573672693
0.0006709270625004761,2.946565228206467,2.946150317002309
0.0006710570625004761,2.947558378051641,2.948152776980001
0.0006711870625004761,2.948220477948423,2.947819033650386
0.0006713170625004761,2.946565228206468,2.945816573672694
0.0006714470625004761,2.946565228206467,2.945149087013463
0.0006715770625004762,2.945241028412902,2.946484060331925
0.0006717070625004762,2.946234178258055,2.947485290320748
0.0006718370625004761,2.901211385276855,2.899426250856157
0.0006719670625004761,2.876713689095896,2.87472924446462
0.0006720970625004761,2.907832384244681,2.906768604107695
0.0006722270625004761,2.923391731819074,2.923122027258849
0.0006723570625004761,2.931667980528857,2.931131867169617
0.0006724870625004761,2.936302679806333,2.935136787125
0.0006726170625004762,2.939282129341859,2.938474220421156
0.0006727470625004762,2.941599478980597,2.940476680398848
0.0006728770625004762,2.943254728722553,2.942812883706155
0.0006730070625004761,2.945903128309684,2.945149087013462
0.0006731370625004761,2.946565228206467,2.945482830343078
0.0006732670625004761,2.945903128309684,2.945482830343078
0.0006733970625004761,2.945903128309684,2.945482830343078
0.0006735270625004761,2.946896278154858,2.946484060331924
0.0006736570625004761,2.948551527896814,2.947819033650385
0.0006737870625004762,2.947889428000031,2.947485290320769
0.0006739170625004762,2.945572078361292,2.945816573672692
0.0006740470625004761,2.943916828619336,2.94314662703577
0.0006741770625004761,2.93994422923864,2.939809193739617
0.0006743070625004761,2.939282129341858,2.93880796375077
0.0006744370625004761,2.935640579909553,2.934469300465771
0.0006745670625004761,2.932661130374032,2.93313432714731
0.0006746970625004761,2.93530952996116,2.933134327147309
0.0006748270625004762,2.938620029445076,2.936138017113849
0.0006749570625004762,2.940275279187031,2.939475450410001
0.0006750870625004761,2.939282129341858,2.93814047709154
0.0006752170625004761,2.939613179290249,2.937806733761925
0.0006753470625004761,2.938951079393466,2.937806733761925
0.0006754770625004761,2.938620029445075,2.939809193739617
0.0006756070625004761,2.916439682902866,2.91444470068886
0.0006757370625004761,2.870754790024874,2.867386891213104
0.0006758670625004762,2.902535585070429,2.901094967504243
0.0006759970625004762,2.921736482077121,2.9197845939627
0.0006761270625004761,2.931336930580466,2.930130637180771
0.0006762570625004761,2.93497848001277,2.935470530454617
0.0006763870625004761,2.938620029445075,2.937472990432309
0.0006765170625004761,2.941268429032205,2.941144167058078
0.0006766470625004761,2.943585778670945,2.942812883706155
0.0006767770625004761,2.945572078361292,2.945816573672692
0.0006769070625004761,2.946896278154858,2.946817803661539
0.0006770370625004762,2.94722732810325,2.945816573672694
0.0006771670625004762,2.947889428000032,2.946484060331924
0.0006772970625004761,2.948220477948423,2.94748529032077
0.0006774270625004761,2.94987572769038,2.948820263639232
0.0006775570625004761,2.947558378051641,2.947819033650386
0.0006776870625004761,2.947558378051641,2.946484060331924
0.0006778170625004761,2.946896278154858,2.94748529032077
0.0006779470625004761,2.947889428000031,2.94748529032077
0.0006780770625004762,2.946896278154855,2.946817803661536
0.0006782070625004762,2.940275279187027,2.939809193739612
0.0006783370625004761,2.931667980528857,2.930464380510386
0.0006784670625004761,2.929350630890118,2.929796893851156
0.0006785970625004761,2.934647430064379,2.932800583817694
0.0006787270625004761,2.936302679806336,2.93814047709154
0.0006788570625004761,2.938951079393465,2.93814047709154
0.0006789870625004761,2.940275279187031,2.938474220421155
0.0006791170625004762,2.938951079393466,2.940476680398847
0.0006792470625004762,2.938951079393467,2.939475450410002
0.0006793770625004761,2.940606329135423,2.939809193739617
0.0006795070625004761,2.938951079393466,2.937806733761925
0.0006796370625004761,2.936633729754727,2.936138017113848
0.0006797670625004761,2.937626879599901,2.937472990432309
0.0006798970625004761,2.939613179290248,2.939809193739616
0.0006800270625004761,2.940937379083814,2.940142937069232
0.0006801570625004762,2.940937379083814,2.939809193739617
0.0006802870625004762,2.940606329135422,2.939809193739617
0.0006804170625004761,2.93994422923864,2.940142937069232
0.0006805470625004761,2.941599478980597,2.940476680398847
0.0006806770625004761,2.916770732851247,2.917782133985003
0.0006808070625004761,2.873403189611983,2.87039058117962
0.0006809370625004761,2.903528734915594,2.90142871083385
0.0006810670625004761,2.920743332231935,2.920785823951532
0.0006811970625004761,2.931005880632069,2.930130637180767
0.0006813270625004762,2.936633729754728,2.935136787125002
0.0006814570625004762,2.938951079393466,2.937472990432309
0.0006815870625004761,2.941599478980597,2.940476680398847
0.0006817170625004761,2.943585778670945,2.943814113695001
0.0006818470625004761,2.946565228206467,2.944815343683847
0.0006819770625004761,2.946896278154858,2.946817803661539
0.0006821070625004761,2.94755837805164,2.947819033650385
0.0006822370625004761,2.947227328103249,2.94748529032077
0.0006823670625004762,2.947889428000033,2.948152776980001
0.0006824970625004762,2.950868877535552,2.949154006968847
0.0006826270625004761,2.947889428000032,2.948820263639232
0.0006827570625004761,2.948220477948423,2.946150317002309
0.0006828870625004761,2.947227328103249,2.946150317002309
0.0006830170625004761,2.946565228206467,2.94748529032077
0.0006831470625004761,2.94755837805164,2.947151546991155
0.0006832770625004761,2.943585778670947,2.942145397046926
0.0006834070625004762,2.935971629857943,2.93580427378423
0.0006835370625004762,2.933323230270815,2.932133097158464
0.0006836670625004761,2.935309529961162,2.933134327147309
0.0006837970625004761,2.937626879599901,2.936471760443463
0.0006839270625004761,2.937626879599901,2.93814047709154
0.0006840570625004761,2.938620029445075,2.937472990432309
0.0006841870625004761,2.938951079393466,2.936471760443463
0.0006843170625004761,2.938288979496684,2.938140477091539
0.0006844470625004762,2.939282129341856,2.938807963750769
0.0006845770625004762,2.93497848001277,2.935804273784231
0.0006847070625004762,2.934316380115987,2.932800583817694
0.0006848370625004761,2.935971629857944,2.934469300465771
0.0006849670625004761,2.938620029445075,2.937806733761925
0.0006850970625004761,2.93994422923864,2.939475450410002
0.0006852270625004761,2.937626879599901,2.93880796375077
0.0006853570625004761,2.938288979496683,2.93747299043231
0.0006854870625004761,2.939613179290248,2.93880796375077
0.0006856170625004762,2.940275279187031,2.940142937069232
0.0006857470625004762,2.939613179290247,2.93947545041
0.0006858770625004761,2.935971629857944,2.936138017113848
0.0006860070625004761,2.935309529961162,2.934803043795386
0.0006861370625004761,2.936964779703118,2.936471760443463
0.0006862670625004761,2.939282129341858,2.940142937069232
0.0006863970625004761,2.939282129341858,2.940476680398847
0.0006865270625004761,2.938288979496684,2.938474220421156
0.0006866570625004762,2.939282129341857,2.937139247102694
0.0006867870625004762,2.938288979496684,2.938140477091541
0.0006869170625004761,2.93994422923864,2.940142937069232
0.0006870470625004761,2.939613179290249,2.938474220421155
0.0006871770625004761,2.936633729754727,2.937139247102694
0.0006873070625004761,2.937295829651509,2.936138017113848
0.0006874370625004761,2.938288979496683,2.937472990432309
0.0006875670625004761,2.939944229238639,2.940142937069231
0.0006876970625004762,2.934978480012769,2.935470530454615
0.0006878270625004762,2.93233008042564,2.931465610499233
0.0006879570625004761,2.933654280219205,2.931799353828848
0.0006880870625004761,2.936302679806336,2.934803043795386
0.0006882170625004761,2.938951079393466,2.937806733761925
0.0006883470625004761,2.939613179290249,2.939141707080386
0.0006884770625004761,2.939613179290249,2.93880796375077
0.0006886070625004761,2.93994422923864,2.93880796375077
0.0006887370625004762,2.939282129341859,2.939809193739617
0.0006888670625004762,2.941599478980594,2.939809193739614
0.0006889970625004762,2.935640579909553,2.93380181380654
0.0006891270625004761,2.931005880632074,2.931131867169617
0.0006892570625004761,2.93497848001277,2.933134327147309
0.0006893870625004761,2.937295829651509,2.936805503773078
0.0006895170625004761,2.939613179290249,2.939475450410002
0.0006896470625004761,2.939613179290249,2.939141707080386
0.0006897770625004761,2.938951079393467,2.939475450410002
0.0006899070625004762,2.939282129341859,2.93880796375077
0.0006900370625004762,2.940937379083813,2.939141707080386
0.0006901670625004761,2.938951079393466,2.939141707080386
0.0006902970625004761,2.931005880632074,2.930130637180771
0.0006904270625004761,2.929681680838509,2.92879566386231
0.0006905570625004761,2.933654280219205,2.932133097158463
0.0006906870625004761,2.935640579909552,2.936471760443461
0.0006908170625004761,2.939282129341856,2.937806733761924
0.0006909470625004762,2.9376268795999,2.937139247102694
0.0006910770625004762,2.936964779703119,2.938140477091539
0.0006912070625004761,2.939282129341858,2.937139247102694
0.0006913370625004761,2.940937379083814,2.939809193739617
0.0006914670625004761,2.93994422923864,2.940476680398847
0.0006915970625004761,2.937957929548292,2.93880796375077
0.0006917270625004761,2.939613179290248,2.939475450410001
0.0006918570625004761,2.940275279187031,2.938807963750771
0.0006919870625004762,2.940606329135422,2.940476680398847
0.0006921170625004762,2.939944229238639,2.94014293706923
0.0006922470625004761,2.937295829651509,2.936471760443463
0.0006923770625004761,2.937295829651509,2.937139247102694
0.0006925070625004761,2.940275279187031,2.93880796375077
0.0006926370625004761,2.940937379083814,2.940142937069232
0.0006927670625004761,2.939282129341858,2.939141707080386
0.0006928970625004761,2.93729582965151,2.937139247102695
0.0006930270625004761,2.937295829651509,2.937806733761924
0.0006931570625004762,2.939944229238641,2.938807963750771
0.0006932870625004762,2.940606329135423,2.940142937069232
0.0006934170625004761,2.937957929548292,2.93814047709154
0.0006935470625004761,2.936633729754727,2.936471760443463
0.0006936770625004761,2.937295829651509,2.937472990432309
0.0006938070625004761,2.940606329135423,2.93880796375077
0.0006939370625004761,2.940937379083814,2.940810423728462
0.0006940670625004761,2.934647430064381,2.934803043795389
0.0006941970625004762,2.932661130374032,2.930464380510388
0.0006943270625004762,2.933985330167598,2.933801813806542
0.0006944570625004761,2.937626879599901,2.937139247102694
0.0006945870625004761,2.939613179290249,2.939475450410002
0.0006947170625004761,2.939613179290249,2.93814047709154
0.0006948470625004761,2.938288979496683,2.937806733761925
0.0006949770625004761,2.939282129341857,2.939475450410001
0.0006951070625004761,2.941930528928987,2.940476680398847
0.0006952370625004762,2.93828897949668,2.939809193739612
0.0006953670625004762,2.931336930580465,2.930464380510386
0.0006954970625004761,2.929350630890118,2.928461920532694
0.0006956270625004761,2.93233008042564,2.932800583817694
0.0006957570625004761,2.937295829651509,2.935804273784232
0.0006958870625004761,2.93994422923864,2.93880796375077
0.0006960170625004761,2.938620029445075,2.937472990432309
0.0006961470625004761,2.939282129341857,2.938140477091539
0.0006962770625004762,2.939944229238641,2.940476680398847
0.0006964070625004762,2.941599478980597,2.940810423728463
0.0006965370625004762,2.941599478980597,2.940476680398847
0.0006966670625004761,2.93994422923864,2.939475450410002
0.0006967970625004761,2.939613179290249,2.939475450410002
0.0006969270625004761,2.93994422923864,2.939475450410002
0.0006970570625004761,2.940937379083814,2.939141707080386
0.0006971870625004761,2.891279886825138,2.890081437626949
0.0006973170625004761,2.883003638115335,2.880402881068086
0.0006974470625004762,2.911142883728601,2.910773524063087
0.0006975770625004762,2.925046981561034,2.925791973895774
0.0006977070625004761,2.933654280219205,2.932133097158463
0.0006978370625004761,2.937626879599901,2.937139247102694
0.0006979670625004761,2.940937379083814,2.939475450410002
0.0006980970625004761,2.942923678774162,2.942812883706155
0.0006982270625004761,2.945241028412901,2.945149087013462
0.0006983570625004761,2.948882577845204,2.946484060331924
0.0006984870625004762,2.947558378051641,2.947819033650386
0.0006986170625004762,2.947889428000032,2.947819033650386
0.0006987470625004761,2.948220477948423,2.947819033650386
0.0006988770625004761,2.950206777638771,2.948820263639232
0.0006990070625004761,2.950868877535554,2.948152776980001
0.0006991370625004761,2.947889428000032,2.949487750298462
0.0006992670625004761,2.949544677741988,2.948152776980001
0.0006993970625004761,2.947558378051641,2.947819033650386
0.0006995270625004762,2.949875727690379,2.948486520309615
0.0006996570625004762,2.946896278154854,2.94581657367269
0.0006997870625004761,2.937957929548292,2.93814047709154
0.0006999170625004761,2.931667980528857,2.931799353828848
0.0007000470625004761,2.933654280219205,2.932466840488079
0.0007001770625004761,2.937626879599901,2.936471760443463
0.0007003070625004761,2.93994422923864,2.937806733761925
0.0007004370625004761,2.93994422923864,2.93880796375077
0.0007005670625004762,2.939613179290249,2.939475450410002
0.0007006970625004762,2.940606329135423,2.940142937069232
0.0007008270625004762,2.941599478980597,2.940142937069232
0.0007009570625004761,2.938951079393466,2.93814047709154
0.0007010870625004761,2.934316380115987,2.934469300465771
0.0007012170625004761,2.934647430064379,2.933468070476925
0.0007013470625004761,2.936964779703118,2.935804273784232
0.0007014770625004761,2.94027527918703,2.939141707080385
0.0007016070625004761,2.93994422923864,2.939809193739616
0.0007017370625004762,2.93994422923864,2.937806733761925
0.0007018670625004762,2.939282129341857,2.938140477091541
0.0007019970625004761,2.938620029445075,2.940476680398847
0.0007021270625004761,2.940937379083814,2.941144167058078
0.0007022570625004761,2.892273036670289,2.889747694297312
0.0007023870625004761,2.881348388373375,2.879401651079236
0.0007025170625004761,2.91081183378019,2.909438550744605
0.0007026470625004761,2.925378031509415,2.924123257247688
0.0007027770625004762,2.932992180322424,2.932133097158465
0.0007029070625004762,2.936302679806337,2.935804273784234
0.0007030370625004761,2.939282129341858,2.93880796375077
0.0007031670625004761,2.942592628825771,2.941477910387694
0.0007032970625004761,2.943254728722553,2.943814113695001
0.0007034270625004761,2.946896278154858,2.946484060331924
0.0007035570625004761,2.946565228206467,2.946150317002309
0.0007036870625004761,2.947227328103249,2.946817803661539
0.0007038170625004762,2.947889428000032,2.947151546991156
0.0007039470625004762,2.947889428000033,2.949154006968847
0.0007040770625004762,2.94987572769038,2.948820263639232
0.0007042070625004761,2.948882577845206,2.947151546991155
0.0007043370625004761,2.945903128309684,2.946817803661539
0.0007044670625004761,2.946234178258075,2.945816573672693
0.0007045970625004761,2.946565228206467,2.947819033650386
0.0007047270625004761,2.946565228206467,2.944147857024618
0.0007048570625004761,2.937295829651513,2.936138017113851
0.0007049870625004762,2.93233008042564,2.931799353828848
0.0007051170625004762,2.93233008042564,2.931465610499233
0.0007052470625004761,2.935640579909553,2.936138017113848
0.0007053770625004761,2.940275279187031,2.938474220421155
0.0007055070625004761,2.938951079393466,2.938474220421155
0.0007056370625004761,2.939282129341858,2.93880796375077
0.0007057670625004761,2.939282129341858,2.939475450410001
0.0007058970625004761,2.940275279187031,2.941144167058077
0.0007060270625004762,2.906839234399493,2.905767374118834
0.0007061570625004762,2.874396339457172,2.871058067838867
0.0007062870625004761,2.905183984657551,2.904432400800388
0.0007064170625004761,2.922729631922291,2.922454540599618
0.0007065470625004761,2.93233008042564,2.930798123840002
0.0007066770625004761,2.936964779703118,2.935804273784232
0.0007068070625004761,2.939944229238639,2.939141707080385
0.0007069370625004761,2.941268429032205,2.941477910387693
0.0007070670625004762,2.944909978464511,2.942812883706156
0.0007071970625004762,2.946565228206467,2.946150317002309
0.0007073270625004761,2.947558378051641,2.946484060331924
0.0007074570625004761,2.946896278154858,2.946484060331924
0.0007075870625004761,2.947558378051641,2.947151546991155
0.0007077170625004761,2.947889428000032,2.947819033650386
0.0007078470625004761,2.948882577845206,2.949154006968846
0.0007079770625004761,2.94987572769038,2.947151546991156
0.0007081070625004762,2.947558378051641,2.94748529032077
0.0007082370625004762,2.947558378051641,2.947819033650386
0.0007083670625004762,2.949213627793597,2.947819033650386
0.0007084970625004761,2.947227328103249,2.948486520309616
0.0007086270625004761,2.942592628825771,2.941477910387694
0.0007087570625004761,2.935971629857944,2.935804273784232
0.0007088870625004761,2.934316380115987,2.933468070476925
0.0007090170625004761,2.934647430064379,2.93446930046577
0.0007091470625004761,2.937957929548291,2.938140477091538
0.0007092770625004762,2.939613179290248,2.938474220421155
0.0007094070625004762,2.938288979496684,2.93747299043231
0.0007095370625004761,2.940275279187031,2.93880796375077
0.0007096670625004761,2.93994422923864,2.940142937069232
0.0007097970625004761,2.93994422923864,2.940142937069232
0.0007099270625004761,2.937957929548292,2.936805503773078
0.0007100570625004761,2.93729582965151,2.936471760443463
0.0007101870625004761,2.938951079393465,2.936805503773078
0.0007103170625004762,2.940606329135423,2.938807963750771
0.0007104470625004762,2.940937379083814,2.940810423728462
0.0007105770625004761,2.941268429032205,2.939809193739617
0.0007107070625004761,2.941268429032205,2.940142937069232
0.0007108370625004761,2.941930528928988,2.940476680398847
0.0007109670625004761,2.941599478980597,2.941477910387694
