Pruebas Experimentales/Medicion de tiempos/General/Medicion_tiempos_all_zoomout_1.csv

#Digilent WaveForms Oscilloscope Acquisition
#Device Name: Discovery2
#Serial Number: SN:210321B0DECA
#Date Time: 2023-12-10 05:48:19.385
#Sample rate: 400000Hz
#Samples: 8192
#Trigger: Source: Channel 2 Type: Edge Condition: Rising Level: 1.6 V Hyst.: Auto HoldOff: 0 s
#Channel 1: Range: 20 mV/div Offset: -2.95 V Attenuation: 1 X Sample Mode: Average
#Channel 2: Range: 500 mV/div Offset: -2 V Attenuation: 1 X Sample Mode: Average
#Power Supplies: OFF
#Positive Supply: Rdy
#Voltage: 3.1 V
#Negative Supply: OFF
#Voltage: -1 V

Time (s),Channel 1 (V),Channel 2 (V)
-0.01423785110876452,3.045880212723866,-0.002138256819831012
-0.01423535110876452,3.045549162775473,-0.001804513490215154
-0.01423285110876452,3.045549162775473,-0.001804513490215154
-0.01423035110876452,3.046211262672256,-0.001804513490215154
-0.01422785110876452,3.046211262672256,-0.002138256819830708
-0.01422535110876452,3.046211262672256,-0.001470770160600043
-0.01422285110876452,3.045549162775474,-0.001804513490215002
-0.01422035110876452,3.045880212723865,-0.002138256819830405
-0.01421785110876452,3.046211262672256,-0.001804513490215154
-0.01421535110876452,3.045880212723865,-0.001470770160600195
-0.01421285110876452,3.045549162775474,-0.001470770160600043
-0.01421035110876452,3.046211262672256,-0.001804513490215306
-0.01420785110876452,3.046211262672256,-0.002138256819830708
-0.01420535110876452,3.046211262672256,-0.001804513490215306
-0.01420285110876452,3.045549162775474,-0.001804513490215154
-0.01420035110876452,3.045218112827082,-0.001470770160600043
-0.01419785110876452,3.045549162775473,-0.002138256819830405
-0.01419535110876452,3.045880212723865,-0.002138256819830708
-0.01419285110876452,3.045549162775473,-0.002138256819830405
-0.01419035110876452,3.044887062878691,-0.001470770160600043
-0.01418785110876452,3.045549162775473,-0.001804513490215002
-0.01418535110876452,3.045549162775473,-0.001470770160600347
-0.01418285110876452,3.045549162775473,-0.002138256819830708
-0.01418035110876452,3.046542312620647,-0.002138256819830708
-0.01417785110876452,3.045880212723866,-0.002472000149445667
-0.01417535110876452,3.046211262672256,-0.001804513490215761
-0.01417285110876452,3.046211262672256,-0.001804513490215154
-0.01417035110876452,3.045549162775474,-0.001804513490215154
-0.01416785110876452,3.045549162775473,-0.002138256819830405
-0.01416535110876452,3.046211262672256,-0.002472000149445819
-0.01416285110876452,3.046211262672256,-0.002472000149445819
-0.01416035110876452,3.045880212723865,-0.001470770160600499
-0.01415785110876452,3.045549162775474,-0.00180451349021485
-0.01415535110876452,3.045549162775473,-0.002138256819830708
-0.01415285110876452,3.045880212723865,-0.002138256819830708
-0.01415035110876452,3.045880212723865,-0.001804513490215457
-0.01414785110876452,3.045880212723865,-0.001804513490215154
-0.01414535110876452,3.045880212723865,-0.001804513490215154
-0.01414285110876452,3.045880212723865,-0.001470770160600195
-0.01414035110876452,3.045880212723865,-0.00180451349021485
-0.01413785110876452,3.045549162775473,-0.001804513490215154
-0.01413535110876452,3.045880212723865,-0.002472000149445515
-0.01413285110876452,3.045549162775473,-0.001804513490215457
-0.01413035110876452,3.045549162775473,-0.001804513490215002
-0.01412785110876452,3.045218112827082,-0.001470770160600043
-0.01412535110876452,3.045549162775473,-0.001804513490215002
-0.01412285110876452,3.045880212723865,-0.002138256819830405
-0.01412035110876452,3.046211262672256,-0.001804513490215154
-0.01411785110876452,3.045880212723865,-0.002138256819830708
-0.01411535110876452,3.045880212723865,-0.001804513490215306
-0.01411285110876452,3.046211262672256,-0.002138256819830405
-0.01411035110876452,3.046211262672256,-0.001804513490215154
-0.01410785110876452,3.045549162775474,-0.001470770160600195
-0.01410535110876452,3.045880212723865,-0.001470770160600043
-0.01410285110876452,3.045880212723865,-0.002138256819830557
-0.01410035110876452,3.045880212723865,-0.001804513490215154
-0.01409785110876452,3.045549162775473,-0.001804513490215154
-0.01409535110876452,3.045549162775473,-0.001804513490215154
-0.01409285110876452,3.045549162775473,-0.002138256819830708
-0.01409035110876452,3.045880212723865,-0.001804513490215306
-0.01408785110876452,3.045549162775474,-0.001804513490215154
-0.01408535110876452,3.045880212723865,-0.001804513490215002
-0.01408285110876452,3.045218112827082,-0.001470770160600043
-0.01408035110876452,3.045549162775473,-0.002138256819830405
-0.01407785110876452,3.045880212723865,-0.002472000149445515
-0.01407535110876452,3.045549162775473,-0.001804513490215154
-0.01407285110876452,3.045549162775473,-0.001804513490215154
-0.01407035110876452,3.045880212723865,-0.002138256819830557
-0.01406785110876452,3.046211262672256,-0.001804513490215457
-0.01406535110876452,3.045549162775473,-0.001804513490215154
-0.01406285110876452,3.045218112827082,-0.001804513490215154
-0.01406035110876452,3.045549162775473,-0.001804513490215154
-0.01405785110876452,3.045549162775473,-0.001804513490215154
-0.01405535110876452,3.045549162775473,-0.001804513490215154
-0.01405285110876452,3.045549162775473,-0.002138256819830557
-0.01405035110876452,3.046211262672256,-0.001804513490215457
-0.01404785110876452,3.045218112827082,-0.001804513490215154
-0.01404535110876452,3.045218112827082,-0.001804513490215154
-0.01404285110876452,3.045549162775473,-0.001804513490215154
-0.01404035110876452,3.045549162775473,-0.001804513490215154
-0.01403785110876452,3.045880212723865,-0.001804513490215154
-0.01403535110876452,3.046211262672256,-0.002138256819830557
-0.01403285110876452,3.045218112827083,-0.001804513490215457
-0.01403035110876452,3.045218112827082,-0.002472000149445819
-0.01402785110876452,3.045880212723865,-0.00213825681983086
-0.01402535110876452,3.045218112827083,-0.001470770160600347
-0.01402285110876452,3.045549162775473,-0.001470770160600195
-0.01402035110876452,3.045880212723865,-0.001804513490215154
-0.01401785110876452,3.045880212723865,-0.001470770160600195
-0.01401535110876452,3.045549162775474,-0.00180451349021485
-0.01401285110876452,3.046211262672256,-0.001804513490215154
-0.01401035110876452,3.046211262672256,-0.002138256819830708
-0.01400785110876452,3.046211262672256,-0.001470770160600347
-0.01400535110876452,3.045880212723866,-0.00180451349021485
-0.01400285110876452,3.046211262672256,-0.002138256819830708
-0.01400035110876452,3.045880212723865,-0.001470770160600347
-0.01399785110876452,3.045880212723865,-0.00180451349021485
-0.01399535110876452,3.046211262672256,-0.001804513490215154
-0.01399285110876452,3.045549162775473,-0.001470770160600043
-0.01399035110876452,3.045880212723865,-0.001470770160600043
-0.01398785110876452,3.045880212723865,-0.001470770160600043
-0.01398535110876452,3.045218112827082,-0.001804513490215154
-0.01398285110876452,3.045880212723865,-0.002138256819830557
-0.01398035110876452,3.045549162775474,-0.001137026830985399
-0.01397785110876452,3.045549162775473,-0.001804513490215154
-0.01397535110876452,3.045549162775473,-0.001804513490215154
-0.01397285110876452,3.045880212723865,-0.001470770160600195
-0.01397035110876452,3.045549162775474,-0.001470770160600043
-0.01396785110876452,3.045880212723865,-0.002138256819830708
-0.01396535110876452,3.045880212723865,-0.002138256819830708
-0.01396285110876452,3.045549162775473,-0.001804513490215306
-0.01396035110876452,3.046211262672256,-0.00213825681983086
-0.01395785110876452,3.046211262672256,-0.002472000149445819
-0.01395535110876452,3.046211262672256,-0.00213825681983086
-0.01395285110876452,3.045880212723866,-0.002138256819830708
-0.01395035110876452,3.045549162775473,-0.001804513490215154
-0.01394785110876452,3.044887062878691,-0.001804513490215154
-0.01394535110876452,3.043231813136735,-0.002138256819830557
-0.01394285110876452,3.043893913033517,-0.001804513490215457
-0.01394035110876452,3.043893913033517,-0.001804513490215154
-0.01393785110876452,3.044224962981908,-0.002138256819830557
-0.01393535110876452,3.044556012930299,-0.001804513490215457
-0.01393285110876452,3.0445560129303,-0.001804513490215457
-0.01393035110876452,3.045218112827082,-0.002472000149445819
-0.01392785110876452,3.045218112827082,-0.001804513490215457
-0.01392535110876452,3.045218112827082,-0.001804513490215154
-0.01392285110876452,3.044887062878691,-0.001470770160600043
-0.01392035110876452,3.044887062878691,-0.001470770160600043
-0.01391785110876452,3.045218112827082,-0.002138256819830101
-0.01391535110876452,3.045880212723865,-0.002138256819830405
-0.01391285110876452,3.045880212723865,-0.001470770160600043
-0.01391035110876452,3.045549162775473,-0.001470770160600043
-0.01390785110876452,3.045549162775473,-0.001470770160600043
-0.01390535110876452,3.0445560129303,-0.001470770160600043
-0.01390285110876452,3.043893913033517,-0.001804513490215002
-0.01390035110876452,3.044556012930299,-0.001804513490215154
-0.01389785110876452,3.0445560129303,-0.002138256819830405
-0.01389535110876452,3.0445560129303,-0.001470770160600043
-0.01389285110876452,3.044887062878691,-0.002138256819830405
-0.01389035110876452,3.044887062878691,-0.001804513490215457
-0.01388785110876452,3.044887062878691,-0.001470770160600043
-0.01388535110876452,3.045218112827082,-0.002138256819830708
-0.01388285110876452,3.045549162775473,-0.002138256819830708
-0.01388035110876452,3.045549162775473,-0.001804513490215457
-0.01387785110876452,3.045880212723865,-0.002138256819830708
-0.01387535110876452,3.045549162775473,-0.001804513490215306
-0.01387285110876452,3.045549162775473,-0.001804513490215154
-0.01387035110876452,3.045880212723865,-0.001804513490215306
-0.01386785110876452,3.045880212723865,-0.002138256819830708
-0.01386535110876452,3.045880212723865,-0.001470770160600347
-0.01386285110876452,3.045549162775474,-0.001470770160600043
-0.01386035110876452,3.045880212723865,-0.002138256819830708
-0.01385785110876452,3.045880212723865,-0.002138256819830708
-0.01385535110876452,3.045880212723865,-0.001804513490215306
-0.01385285110876452,3.045549162775473,-0.001804513490215306
-0.01385035110876452,3.045549162775473,-0.002138256819830708
-0.01384785110876452,3.045880212723865,-0.002138256819830708
-0.01384535110876452,3.045549162775474,-0.001804513490215457
-0.01384285110876452,3.045880212723865,-0.002138256819830708
-0.01384035110876452,3.045549162775473,-0.002138256819830708
-0.01383785110876452,3.045549162775473,-0.001804513490215306
-0.01383535110876452,3.045549162775473,-0.002138256819830405
-0.01383285110876452,3.045549162775473,-0.002138256819830708
-0.01383035110876452,3.045549162775473,-0.002138256819830708
-0.01382785110876452,3.045880212723865,-0.002138256819830708
-0.01382535110876452,3.045880212723865,-0.001470770160600195
-0.01382285110876452,3.045549162775473,-0.001804513490215154
-0.01382035110876452,3.045549162775473,-0.001804513490215154
-0.01381785110876452,3.045880212723865,-0.001804513490215154
-0.01381535110876452,3.045218112827082,-0.001804513490215154
-0.01381285110876452,3.045549162775473,-0.001470770160600195
-0.01381035110876452,3.045549162775473,-0.00180451349021485
-0.01380785110876452,3.045549162775474,-0.001804513490215154
-0.01380535110876452,3.046211262672256,-0.001804513490215154
-0.01380285110876452,3.045880212723865,-0.001804513490215154
-0.01380035110876452,3.045549162775474,-0.001470770160600347
-0.01379785110876452,3.045218112827082,-0.001470770160600043
-0.01379535110876452,3.045218112827082,-0.001804513490215002
-0.01379285110876452,3.045549162775473,-0.002138256819830557
-0.01379035110876452,3.045549162775473,-0.002138256819830708
-0.01378785110876452,3.045218112827082,-0.002138256819830708
-0.01378535110876452,3.045549162775473,-0.001470770160600347
-0.01378285110876452,3.045549162775473,-0.00180451349021485
-0.01378035110876452,3.045880212723865,-0.001804513490215154
-0.01377785110876452,3.045218112827082,-0.001804513490215154
-0.01377535110876452,3.045880212723865,-0.001470770160600195
-0.01377285110876452,3.045549162775474,-0.00180451349021485
-0.01377035110876452,3.045549162775473,-0.002138256819830708
-0.01376785110876452,3.045549162775473,-0.001804513490215306
-0.01376535110876452,3.045880212723865,-0.001470770160600347
-0.01376285110876452,3.045549162775473,-0.001470770160600195
-0.01376035110876452,3.045218112827082,-0.001804513490215154
-0.01375785110876452,3.045880212723865,-0.001804513490215154
-0.01375535110876452,3.045880212723865,-0.002138256819830405
-0.01375285110876452,3.046211262672256,-0.002138256819830708
-0.01375035110876452,3.045549162775474,-0.001470770160600347
-0.01374785110876452,3.045880212723865,-0.00180451349021485
-0.01374535110876452,3.045880212723865,-0.001804513490215002
-0.01374285110876452,3.045549162775473,-0.001470770160600043
-0.01374035110876452,3.045880212723865,-0.002472000149445363
-0.01373785110876452,3.045880212723865,-0.002138256819831012
-0.01373535110876452,3.045880212723865,-0.001804513490215154
-0.01373285110876452,3.045218112827083,-0.002138256819830557
-0.01373035110876452,3.045880212723865,-0.001804513490215306
-0.01372785110876452,3.045549162775474,-0.001470770160600347
-0.01372535110876452,3.045218112827082,-0.001804513490215154
-0.01372285110876452,3.045880212723865,-0.002138256819830557
-0.01372035110876452,3.045549162775474,-0.001804513490215457
-0.01371785110876452,3.045549162775473,-0.001137026830984489
-0.01371535110876452,3.045880212723865,-0.001470770160600043
-0.01371285110876452,3.045880212723865,-0.002472000149445363
-0.01371035110876452,3.046211262672256,-0.002472000149445819
-0.01370785110876452,3.045549162775473,-0.001804513490215154
-0.01370535110876452,3.045549162775473,-0.001470770160600195
-0.01370285110876452,3.045549162775473,-0.001470770160600043
-0.01370035110876452,3.045549162775474,-0.002138256819830708
-0.01369785110876452,3.046211262672256,-0.002138256819830708
-0.01369535110876452,3.045880212723865,-0.002138256819830708
-0.01369285110876452,3.045880212723865,-0.001470770160600651
-0.01369035110876452,3.045549162775473,-0.001470770160600043
-0.01368785110876452,3.045549162775473,-0.001804513490215002
-0.01368535110876452,3.045218112827082,-0.002138256819830557
-0.01368285110876452,3.045549162775474,-0.002138256819830708
-0.01368035110876452,3.046211262672256,-0.002138256819830708
-0.01367785110876452,3.045880212723865,-0.001804513490215306
-0.01367535110876452,3.045218112827083,-0.001470770160600347
-0.01367285110876452,3.045218112827082,-0.001804513490215154
-0.01367035110876452,3.045880212723865,-0.002138256819830708
-0.01366785110876452,3.045549162775473,-0.001804513490215306
-0.01366535110876452,3.045549162775473,-0.001470770160600347
-0.01366285110876452,3.045880212723865,-0.001804513490215154
-0.01366035110876452,3.045880212723865,-0.002138256819830557
-0.01365785110876452,3.045880212723865,-0.001470770160600651
-0.01365535110876452,3.045549162775473,-0.001470770160600195
-0.01365285110876452,3.045549162775473,-0.001804513490215154
-0.01365035110876452,3.045549162775473,-0.001804513490215154
-0.01364785110876452,3.045549162775473,-0.001470770160600347
-0.01364535110876452,3.045549162775473,-0.001470770160600043
-0.01364285110876452,3.045880212723865,-0.001804513490215002
-0.01364035110876452,3.045880212723865,-0.001804513490215154
-0.01363785110876452,3.045880212723865,-0.001470770160600043
-0.01363535110876452,3.045549162775473,-0.001470770160600043
-0.01363285110876452,3.045549162775473,-0.001804513490215002
-0.01363035110876452,3.045549162775473,-0.001804513490215154
-0.01362785110876452,3.045880212723865,-0.001470770160600043
-0.01362535110876452,3.045880212723865,-0.001804513490215002
-0.01362285110876452,3.046211262672256,-0.001804513490215154
-0.01362035110876452,3.046211262672256,-0.001470770160600347
-0.01361785110876452,3.046211262672256,-0.001137026830984489
-0.01361535110876452,3.046211262672256,-0.001470770160599892
-0.01361285110876452,3.045880212723866,-0.002138256819830101
-0.01361035110876452,3.045549162775473,-0.001804513490215154
-0.01360785110876452,3.046211262672256,-0.001804513490215154
-0.01360535110876452,3.046211262672256,-0.001470770160600195
-0.01360285110876452,3.045880212723866,-0.001470770160600043
-0.01360035110876452,3.045549162775473,-0.001804513490215154
-0.01359785110876452,3.045549162775473,-0.002138256819830557
-0.01359535110876452,3.045549162775473,-0.002472000149445515
-0.01359285110876452,3.046211262672256,-0.002138256819830557
-0.01359035110876452,3.045549162775473,-0.001804513490215154
-0.01358785110876452,3.045549162775473,-0.001804513490215154
-0.01358535110876452,3.045549162775473,-0.001804513490215154
-0.01358285110876452,3.045218112827082,-0.001804513490215154
-0.01358035110876452,3.045218112827082,-0.001804513490215154
-0.01357785110876452,3.046211262672256,-0.002472000149445212
-0.01357535110876452,3.045880212723865,-0.001804513490215002
-0.01357285110876452,3.045880212723865,-0.001470770160600043
-0.01357035110876452,3.045880212723865,-0.002138256819830405
-0.01356785110876452,3.045549162775474,-0.001470770160600651
-0.01356535110876452,3.045549162775473,-0.001470770160600043
-0.01356285110876452,3.045880212723865,-0.002138256819830405
-0.01356035110876452,3.045549162775473,-0.001804513490215306
-0.01355785110876452,3.045549162775473,-0.002138256819830405
-0.01355535110876452,3.046211262672256,-0.001470770160600043
-0.01355285110876452,3.045549162775474,-0.001470770160600043
-0.01355035110876452,3.045549162775473,-0.00180451349021485
-0.01354785110876452,3.045549162775473,-0.001470770160600043
-0.01354535110876452,3.046211262672256,-0.001470770160600043
-0.01354285110876452,3.045549162775474,-0.001470770160600043
-0.01354035110876452,3.045549162775473,-0.00180451349021485
-0.01353785110876452,3.045549162775473,-0.002138256819830708
-0.01353535110876452,3.045880212723865,-0.001470770160600347
-0.01353285110876452,3.045549162775474,-0.00180451349021485
-0.01353035110876452,3.045880212723865,-0.001137026830984792
-0.01352785110876452,3.045880212723865,-0.001804513490215154
-0.01352535110876452,3.045549162775473,-0.001804513490215154
-0.01352285110876452,3.045880212723865,-0.001804513490215154
-0.01352035110876452,3.045880212723865,-0.001804513490215154
-0.01351785110876452,3.045549162775473,-0.001470770160600195
-0.01351535110876452,3.045218112827082,-0.001470770160600043
-0.01351285110876452,3.045549162775473,-0.001137026830984641
-0.01351035110876452,3.045549162775473,-0.001470770160600043
-0.01350785110876452,3.045549162775473,-0.001804513490215002
-0.01350535110876452,3.045549162775473,-0.001804513490215154
-0.01350285110876452,3.046211262672256,-0.001137026830984489
-0.01350035110876452,3.045549162775473,-0.001137026830984489
-0.01349785110876452,3.045549162775473,-0.00180451349021485
-0.01349535110876452,3.046211262672256,-0.001804513490215154
-0.01349285110876452,3.046211262672256,-0.001804513490215154
-0.01349035110876452,3.046211262672256,-0.001804513490215154
-0.01348785110876452,3.046211262672256,-0.001470770160600347
-0.01348535110876452,3.045549162775473,-0.001470770160600043
-0.01348285110876452,3.045880212723865,-0.001470770160600043
-0.01348035110876452,3.046211262672256,-0.001470770160600043
-0.01347785110876452,3.046211262672256,-0.001137026830984792
-0.01347535110876452,3.045880212723865,-0.002138256819830708
-0.01347285110876452,3.045880212723865,-0.001804513490215306
-0.01347035110876452,3.046211262672256,-0.001470770160600347
-0.01346785110876452,3.045549162775473,-0.001470770160600195
-0.01346535110876452,3.045218112827082,-0.001804513490215154
-0.01346285110876452,3.045880212723865,-0.001804513490215154
-0.01346035110876452,3.045549162775474,-0.001470770160600347
-0.01345785110876452,3.045549162775473,-0.002138256819830708
-0.01345535110876452,3.045880212723865,-0.001804513490215306
-0.01345285110876452,3.045880212723865,-0.001470770160600195
-0.01345035110876452,3.046211262672256,-0.00180451349021485
-0.01344785110876452,3.046211262672256,-0.001804513490215154
-0.01344535110876452,3.045880212723865,-0.001804513490215154
