Pruebas Experimentales/Medicion de tiempos/ADC/Medicion_Wet_y_Temp_Adaptador2_cap104yelectro10uF_LedON_zoomINadc.csv

#Digilent WaveForms Oscilloscope Acquisition
#Device Name: Discovery2
#Serial Number: SN:210321B0DECA
#Date Time: 2023-12-07 20:55:31.125
#Sample rate: 7.69231e+06Hz
#Samples: 8192
#Trigger: Source: Channel 2 Type: Edge Condition: Rising Level: 2.5 V Hyst.: Auto HoldOff: 0 s
#Channel 1: Range: 100 mV/div Offset: -2.95 V Attenuation: 1 X Sample Mode: Average
#Channel 2: Range: 500 mV/div Offset: -2 V Attenuation: 1 X Sample Mode: Average
#Power Supplies: ON
#Positive Supply: ON
#Voltage: 3.1 V
#Negative Supply: OFF
#Voltage: -1 V

Time (s),Channel 1 (V),Channel 2 (V)
-0.0001325610316078178,2.940275279187031,-0.002472000149445819
-0.0001324310316078178,2.93994422923864,-0.002805743479061373
-0.0001323010316078178,2.93994422923864,-0.002138256819830708
-0.0001321710316078178,2.940606329135423,-0.002138256819830708
-0.0001320410316078178,2.939944229238641,-0.00280574347906107
-0.0001319110316078178,2.940275279187031,-0.002472000149445971
-0.0001317810316078177,2.93994422923864,-0.002138256819830708
-0.0001316510316078178,2.93994422923864,-0.00213825681983086
-0.0001315210316078178,2.93994422923864,-0.002472000149445819
-0.0001313910316078178,2.940275279187031,-0.002138256819830708
-0.0001312610316078178,2.93994422923864,-0.002472000149445819
-0.0001311310316078178,2.940275279187031,-0.002805743479061373
-0.0001310010316078178,2.93994422923864,-0.001804513490215154
-0.0001308710316078178,2.939613179290249,-0.001470770160600195
-0.0001307410316078178,2.940275279187031,-0.003473230138291128
-0.0001306110316078177,2.93994422923864,-0.002472000149445819
-0.0001304810316078178,2.939613179290249,-0.002472000149445819
-0.0001303510316078178,2.940275279187031,-0.002472000149445819
-0.0001302210316078178,2.940606329135423,-0.002805743479061373
-0.0001300910316078178,2.93994422923864,-0.002805743479061373
-0.0001299610316078178,2.939613179290249,-0.003806973467907593
-0.0001298310316078178,2.940275279187031,-0.002472000149446426
-0.0001297010316078178,2.93994422923864,-0.003139486808676624
-0.0001295710316078177,2.940275279187031,-0.002805743479061373
-0.0001294410316078178,2.940275279187031,-0.002805743479061373
-0.0001293110316078178,2.939282129341858,-0.002805743479061373
-0.0001291810316078178,2.93994422923864,-0.003806973467907593
-0.0001290510316078178,2.940937379083814,-0.002138256819830708
-0.0001289210316078178,2.940275279187031,-0.002805743479061373
-0.0001287910316078178,2.940275279187031,-0.003139486808676776
-0.0001286610316078178,2.940606329135423,-0.002472000149446122
-0.0001285310316078177,2.940275279187032,-0.002472000149446274
-0.0001284010316078178,2.940937379083814,-0.003473230138291887
-0.0001282710316078178,2.941268429032205,-0.003139486808676928
-0.0001281410316078178,2.93994422923864,-0.002472000149445819
-0.0001280110316078178,2.940275279187031,-0.003806973467907593
-0.0001278810316078178,2.940937379083814,-0.002472000149445819
-0.0001277510316078178,2.93994422923864,-0.003139486808676928
-0.0001276210316078178,2.93994422923864,-0.003139486808676928
-0.0001274910316078177,2.93994422923864,-0.003139486808676624
-0.0001273610316078178,2.939282129341858,-0.002472000149445819
-0.0001272310316078178,2.939613179290249,-0.002472000149445819
-0.0001271010316078178,2.937957929548292,-0.002472000149445819
-0.0001269710316078178,2.938288979496683,-0.003139486808676928
-0.0001268410316078178,2.938288979496683,-0.004140716797522703
-0.0001267110316078178,2.939282129341858,-0.003139486808676928
-0.0001265810316078178,2.940275279187031,-0.002472000149446122
-0.0001264510316078178,2.940606329135423,-0.003806973467906986
-0.0001263210316078177,2.940275279187031,-0.003139486808676776
-0.0001261910316078178,2.939282129341858,-0.002805743479061677
-0.0001260610316078178,2.939613179290249,-0.003473230138292038
-0.0001259310316078178,2.940275279187031,-0.003473230138292038
-0.0001258010316078178,2.93994422923864,-0.004140716797522703
-0.0001256710316078178,2.939613179290249,-0.003806973467907593
-0.0001255410316078178,2.93994422923864,-0.003139486808677231
-0.0001254110316078178,2.939613179290249,-0.003473230138291887
-0.0001252810316078177,2.93994422923864,-0.003139486808676928
-0.0001251510316078178,2.939613179290249,-0.003139486808677231
-0.0001250210316078178,2.939613179290249,-0.003806973467907593
-0.0001248910316078178,2.93994422923864,-0.003473230138292038
-0.0001247610316078178,2.940606329135423,-0.002138256819830708
-0.0001246310316078178,2.939282129341858,-0.001804513490215154
-0.0001245010316078178,2.939282129341858,-0.003806973467906682
-0.0001243710316078178,2.938951079393466,-0.002805743479061829
-0.0001242410316078177,2.93961317929025,-0.002805743479061525
-0.0001241110316078178,2.941268429032205,-0.003139486808676776
-0.0001239810316078178,2.940606329135423,-0.002805743479061373
-0.0001238510316078178,2.940275279187031,-0.003473230138292038
-0.0001237210316078178,2.940606329135423,-0.002472000149445819
-0.0001235910316078178,2.941268429032205,-0.001470770160600043
-0.0001234610316078178,2.940275279187031,-0.003139486808676928
-0.0001233310316078178,2.940937379083814,-0.002805743479061525
-0.0001232010316078178,2.940606329135423,-0.002138256819831012
-0.0001230710316078178,2.940606329135423,-0.002805743479061373
-0.0001229410316078178,2.940937379083814,-0.002805743479061373
-0.0001228110316078178,2.940606329135423,-0.002138256819830708
-0.0001226810316078178,2.940606329135423,-0.002805743479061373
-0.0001225510316078178,2.940606329135423,-0.003139486808676928
-0.0001224210316078178,2.940606329135423,-0.002472000149445819
-0.0001222910316078178,2.939944229238641,-0.00213825681983086
-0.0001221610316078178,2.93994422923864,-0.003139486808676472
-0.0001220310316078177,2.939282129341857,-0.001804513490215457
-0.0001219010316078178,2.937957929548292,-0.002472000149445819
-0.0001217710316078178,2.939282129341858,-0.002472000149445819
-0.0001216410316078178,2.939613179290249,-0.002472000149445819
-0.0001215110316078178,2.939282129341858,-0.002472000149445819
-0.0001213810316078178,2.93994422923864,-0.002472000149445819
-0.0001212510316078178,2.939613179290249,-0.00213825681983086
-0.0001211210316078178,2.939613179290249,-0.002472000149445667
-0.0001209910316078177,2.93994422923864,-0.002138256819830557
-0.0001208610316078178,2.940275279187031,-0.001804513490215609
-0.0001207310316078178,2.93994422923864,-0.002805743479061373
-0.0001206010316078178,2.93994422923864,-0.002805743479061373
-0.0001204710316078178,2.940275279187031,-0.002138256819830708
-0.0001203410316078178,2.940275279187031,-0.001804513490215154
-0.0001202110316078178,2.940275279187031,-0.002472000149445515
-0.0001200810316078178,2.940275279187031,-0.002472000149445819
-0.0001199510316078177,2.939613179290249,-0.002472000149445819
-0.0001198210316078178,2.940606329135422,-0.002472000149445667
-0.0001196910316078178,2.93994422923864,-0.002138256819830708
-0.0001195610316078178,2.939613179290249,-0.001804513490215154
-0.0001194310316078178,2.940275279187031,-0.002138256819830708
-0.0001193010316078178,2.940275279187031,-0.001804513490215154
-0.0001191710316078178,2.93994422923864,-0.002138256819830708
-0.0001190410316078178,2.940606329135422,-0.001804513490215306
-0.0001189110316078178,2.940275279187031,-0.001804513490215154
-0.0001187810316078177,2.939613179290249,-0.002138256819830708
-0.0001186510316078178,2.940275279187031,-0.002138256819830708
-0.0001185210316078178,2.940275279187031,-0.002138256819830708
-0.0001183910316078178,2.940275279187031,-0.002138256819830708
-0.0001182610316078178,2.93994422923864,-0.003139486808676928
-0.0001181310316078178,2.939613179290249,-0.001804513490215154
-0.0001180010316078178,2.939282129341858,-0.002472000149445515
-0.0001178710316078178,2.93994422923864,-0.00213825681983086
-0.0001177410316078177,2.939282129341858,-0.002472000149445819
-0.0001176110316078178,2.938951079393467,-0.002472000149445819
-0.0001174810316078178,2.93994422923864,-0.002472000149445819
-0.0001173510316078178,2.939613179290249,-0.002805743479061373
-0.0001172210316078178,2.939613179290249,-0.002805743479061373
-0.0001170910316078178,2.93994422923864,-0.002472000149445819
-0.0001169610316078178,2.938288979496684,-0.003473230138291583
-0.0001168310316078178,2.938620029445075,-0.002805743479061677
-0.0001167010316078177,2.939613179290249,-0.002805743479061222
-0.0001165710316078178,2.93994422923864,-0.002472000149446122
-0.0001164410316078178,2.939613179290249,-0.003139486808676928
-0.0001163110316078178,2.939282129341858,-0.003139486808676928
-0.0001161810316078178,2.940275279187031,-0.001804513490215154
-0.0001160510316078178,2.93994422923864,-0.002472000149445819
-0.0001159210316078178,2.93994422923864,-0.003473230138292038
-0.0001157910316078178,2.93994422923864,-0.00313948680867708
-0.0001156610316078177,2.93994422923864,-0.001470770160600651
-0.0001155310316078178,2.940275279187031,-0.00280574347906107
-0.0001154010316078178,2.93994422923864,-0.002138256819830708
-0.0001152710316078178,2.93994422923864,-0.002138256819830708
-0.0001151410316078178,2.93994422923864,-0.003473230138292038
-0.0001150110316078178,2.940275279187031,-0.002805743479061373
-0.0001148810316078178,2.939282129341858,-0.001804513490215154
-0.0001147510316078178,2.93994422923864,-0.003139486808676321
-0.0001146210316078178,2.93994422923864,-0.002805743479061525
-0.0001144910316078177,2.939613179290248,-0.00313948680867708
-0.0001143610316078178,2.938951079393467,-0.003473230138291887
-0.0001142310316078178,2.93994422923864,-0.003139486808676928
-0.0001141010316078178,2.939613179290249,-0.002805743479061373
-0.0001139710316078178,2.93994422923864,-0.004140716797522703
-0.0001138410316078178,2.939613179290249,-0.003139486808676928
-0.0001137110316078178,2.939613179290249,-0.002138256819831164
-0.0001135810316078178,2.939282129341858,-0.002472000149445667
-0.0001134510316078177,2.93994422923864,-0.003473230138291735
-0.0001133210316078178,2.939282129341858,-0.002805743479061222
-0.0001131910316078178,2.939282129341858,-0.002472000149445819
-0.0001130610316078178,2.939613179290249,-0.003473230138292038
-0.0001129310316078178,2.940275279187031,-0.002805743479061373
-0.0001128010316078178,2.940275279187031,-0.003473230138292038
-0.0001126710316078178,2.93994422923864,-0.00313948680867708
-0.0001125410316078178,2.93994422923864,-0.002805743479061525
-0.0001124110316078177,2.93994422923864,-0.003139486808676928
-0.0001122810316078178,2.940275279187031,-0.003139486808677231
-0.0001121510316078178,2.940275279187031,-0.003806973467907593
-0.0001120210316078178,2.939613179290249,-0.003139486808676928
-0.0001118910316078178,2.938620029445075,-0.003139486808676928
-0.0001117610316078178,2.939282129341858,-0.003139486808676928
-0.0001116310316078178,2.93994422923864,-0.003806973467907593
-0.0001115010316078178,2.93994422923864,-0.00347323013829219
-0.0001113710316078177,2.939613179290249,-0.00313948680867708
-0.0001112410316078178,2.940275279187031,-0.00347323013829219
-0.0001111110316078178,2.940606329135423,-0.003806973467907593
-0.0001109810316078178,2.940606329135423,-0.003473230138292038
-0.0001108510316078178,2.940606329135423,-0.003473230138292038
-0.0001107210316078178,2.940606329135423,-0.003473230138292038
-0.0001105910316078178,2.940606329135423,-0.003473230138292038
-0.0001104610316078178,2.940275279187031,-0.00313948680867708
-0.0001103310316078178,2.940606329135423,-0.004140716797522248
-0.0001102010316078177,2.940275279187031,-0.004140716797522703
-0.0001100710316078178,2.940275279187032,-0.004140716797522551
-0.0001099410316078178,2.940937379083814,-0.003806973467907593
-0.0001098110316078178,2.940606329135423,-0.003806973467907593
-0.0001096810316078178,2.940606329135423,-0.004808203456753368
-0.0001095510316078178,2.940937379083814,-0.004140716797522703
-0.0001094210316078178,2.940275279187032,-0.003473230138292342
-0.0001092910316078178,2.941268429032205,-0.003806973467907441
-0.0001091610316078177,2.941599478980596,-0.004140716797522248
-0.0001090310316078178,2.940275279187031,-0.003139486808677383
-0.0001089010316078178,2.940275279187031,-0.004140716797522703
-0.0001087710316078178,2.941268429032205,-0.003806973467907593
-0.0001086410316078178,2.941268429032205,-0.003473230138292038
-0.0001085110316078178,2.940275279187031,-0.003806973467907593
-0.0001083810316078178,2.940937379083814,-0.004474460127137954
-0.0001082510316078178,2.940275279187032,-0.003806973467907896
-0.0001081210316078177,2.940275279187031,-0.003806973467907593
-0.0001079910316078178,2.940606329135423,-0.003806973467907593
-0.0001078610316078178,2.940275279187031,-0.003806973467907593
-0.0001077310316078178,2.939613179290249,-0.003806973467907593
-0.0001076010316078178,2.93994422923864,-0.004140716797522703
-0.0001074710316078178,2.940606329135423,-0.003139486808676928
-0.0001073410316078178,2.940937379083814,-0.003806973467907593
-0.0001072110316078178,2.940606329135423,-0.004474460127137954
-0.0001070810316078178,2.940937379083814,-0.003473230138292494
-0.0001069510316078177,2.93994422923864,-0.003139486808677383
-0.0001068210316078178,2.939613179290249,-0.004140716797522703
-0.0001066910316078178,2.939613179290249,-0.003473230138292038
-0.0001065610316078178,2.939613179290249,-0.003473230138292038
-0.0001064310316078178,2.93994422923864,-0.004140716797522703
-0.0001063010316078178,2.940275279187031,-0.002805743479061373
-0.0001061710316078178,2.940275279187031,-0.002472000149445971
-0.0001060410316078178,2.940937379083814,-0.004474460127137347
-0.0001059110316078177,2.940606329135423,-0.003473230138291735
-0.0001057810316078178,2.940275279187031,-0.002805743479061373
-0.0001056510316078178,2.940275279187031,-0.002805743479061373
-0.0001055210316078178,2.93994422923864,-0.003806973467907593
-0.0001053910316078178,2.93994422923864,-0.003806973467907593
-0.0001052610316078178,2.939613179290249,-0.003139486808676928
-0.0001051310316078178,2.93994422923864,-0.003139486808676928
-0.0001050010316078178,2.93994422923864,-0.003473230138291887
-0.0001048710316078177,2.940275279187031,-0.003806973467907441
-0.0001047410316078178,2.93994422923864,-0.003473230138291583
-0.0001046110316078178,2.940275279187031,-0.002472000149445819
-0.0001044810316078178,2.940275279187031,-0.002805743479061373
-0.0001043510316078178,2.940275279187031,-0.003473230138292038
-0.0001042210316078178,2.93994422923864,-0.003473230138292038
-0.0001040910316078178,2.93994422923864,-0.003139486808676928
-0.0001039610316078178,2.940275279187031,-0.003139486808676928
-0.0001038310316078177,2.939944229238641,-0.003473230138292038
-0.0001037010316078178,2.940606329135422,-0.003473230138291887
-0.0001035710316078178,2.93994422923864,-0.003139486808676928
-0.0001034410316078178,2.93994422923864,-0.003139486808676928
-0.0001033110316078178,2.940606329135423,-0.003139486808676928
-0.0001031810316078178,2.940606329135423,-0.002472000149445819
-0.0001030510316078178,2.940606329135423,-0.003139486808676928
-0.0001029210316078178,2.940275279187031,-0.002805743479061525
-0.0001027910316078178,2.940606329135423,-0.002472000149445971
-0.0001026610316078177,2.93994422923864,-0.003139486808677231
-0.0001025310316078178,2.940275279187031,-0.003806973467907441
-0.0001024010316078178,2.940275279187031,-0.003473230138292038
-0.0001022710316078178,2.939613179290249,-0.002805743479061373
-0.0001021410316078178,2.940275279187031,-0.003473230138292038
-0.0001020110316078178,2.940275279187031,-0.003473230138292038
-0.0001018810316078178,2.93994422923864,-0.002472000149446274
-0.0001017510316078178,2.940275279187031,-0.003806973467906986
-0.0001016210316078177,2.940275279187031,-0.003139486808676776
-0.0001014910316078178,2.93994422923864,-0.002805743479061677
-0.0001013610316078178,2.93994422923864,-0.003473230138292038
-0.0001012310316078178,2.940275279187031,-0.003806973467907593
-0.0001011010316078178,2.939282129341858,-0.003473230138292038
-0.0001009710316078178,2.939613179290249,-0.003139486808676928
-0.0001008410316078178,2.940275279187031,-0.003139486808676928
-0.0001007110316078178,2.93994422923864,-0.002805743479061525
-0.0001005810316078177,2.93994422923864,-0.003806973467907137
-0.0001004510316078178,2.939613179290249,-0.00280574347906107
-0.0001003210316078178,2.940275279187031,-0.002138256819830708
-0.0001001910316078178,2.940275279187031,-0.003139486808676928
-0.0001000610316078178,2.940937379083814,-0.003473230138292038
-9.993103160781781e-05,2.940606329135423,-0.002138256819830708
-9.980103160781782e-05,2.939613179290249,-0.002472000149445819
-9.967103160781783e-05,2.940275279187031,-0.003473230138291583
-9.954103160781774e-05,2.940606329135422,-0.002805743479061222
-9.941103160781775e-05,2.93994422923864,-0.002472000149446122
-9.928103160781776e-05,2.938951079393466,-0.003139486808676928
-9.915103160781778e-05,2.938288979496683,-0.003139486808676928
-9.902103160781779e-05,2.939282129341858,-0.002805743479061373
-9.88910316078178e-05,2.940275279187031,-0.003473230138292038
-9.876103160781782e-05,2.940937379083814,-0.003806973467907593
-9.863103160781783e-05,2.939613179290249,-0.003139486808677231
-9.850103160781784e-05,2.93994422923864,-0.003473230138291887
-9.837103160781775e-05,2.940275279187031,-0.00347323013829219
-9.824103160781776e-05,2.940606329135422,-0.003806973467907593
-9.811103160781777e-05,2.93994422923864,-0.003806973467907593
-9.798103160781779e-05,2.93994422923864,-0.003139486808676928
-9.78510316078178e-05,2.940606329135423,-0.003139486808676928
-9.772103160781781e-05,2.940275279187031,-0.003139486808676928
-9.759103160781783e-05,2.940275279187031,-0.002805743479061525
-9.746103160781784e-05,2.93994422923864,-0.002472000149445971
-9.733103160781774e-05,2.940606329135423,-0.003139486808676624
-9.720103160781776e-05,2.940606329135423,-0.002472000149445971
-9.707103160781777e-05,2.941268429032205,-0.002805743479061373
-9.694103160781778e-05,2.940606329135423,-0.003139486808676928
-9.68110316078178e-05,2.93994422923864,-0.002138256819830708
-9.668103160781781e-05,2.939282129341858,-0.001804513490215154
-9.655103160781782e-05,2.939613179290249,-0.002805743479060918
-9.642103160781783e-05,2.940275279187031,-0.002805743479061373
-9.629103160781774e-05,2.940275279187031,-0.002138256819830557
-9.616103160781775e-05,2.940275279187032,-0.001804513490215609
-9.603103160781777e-05,2.940937379083814,-0.002805743479061373
-9.590103160781778e-05,2.940937379083814,-0.002805743479061373
-9.577103160781779e-05,2.940606329135423,-0.002472000149445819
-9.56410316078178e-05,2.940275279187031,-0.002805743479061373
-9.551103160781782e-05,2.940937379083814,-0.002472000149445819
-9.538103160781783e-05,2.940606329135423,-0.002805743479061222
-9.525103160781784e-05,2.939613179290249,-0.002472000149445971
-9.512103160781775e-05,2.93994422923864,-0.003139486808676624
-9.499103160781776e-05,2.93994422923864,-0.002472000149445819
-9.486103160781778e-05,2.940275279187031,-0.002472000149445819
-9.473103160781779e-05,2.940275279187031,-0.003139486808676928
-9.46010316078178e-05,2.93994422923864,-0.003139486808676928
-9.447103160781781e-05,2.93994422923864,-0.003473230138292038
-9.434103160781783e-05,2.93994422923864,-0.002805743479061677
-9.421103160781784e-05,2.93994422923864,-0.002472000149445971
-9.408103160781775e-05,2.940275279187031,-0.003139486808677383
-9.395103160781776e-05,2.940275279187031,-0.004140716797522096
-9.382103160781777e-05,2.93994422923864,-0.002805743479061373
-9.369103160781778e-05,2.940275279187031,-0.001470770160600043
-9.35610316078178e-05,2.940937379083814,-0.002805743479061373
-9.343103160781781e-05,2.940275279187031,-0.003473230138292038
-9.330103160781782e-05,2.940275279187031,-0.002472000149446274
-9.317103160781784e-05,2.93994422923864,-0.002472000149445819
-9.304103160781774e-05,2.940606329135422,-0.003139486808676472
-9.291103160781775e-05,2.939613179290249,-0.00213825681983086
-9.278103160781777e-05,2.93994422923864,-0.002472000149445819
-9.265103160781778e-05,2.939613179290249,-0.002805743479061373
-9.252103160781779e-05,2.93994422923864,-0.002138256819830708
-9.239103160781781e-05,2.93994422923864,-0.002472000149445819
