Pruebas Experimentales/Medicion de tiempos/ADC/Medicion_Wet_y_Temp_Adaptador2_cap104yelectro10uF_LedON_zoomINwakeup0.csv

#Digilent WaveForms Oscilloscope Acquisition
#Device Name: Discovery2
#Serial Number: SN:210321B0DECA
#Date Time: 2023-12-07 21:01:11.056
#Sample rate: 1e+08Hz
#Samples: 8192
#Trigger: Source: Channel 1 Type: Edge Condition: Falling Level: 3.03 V Hyst.: Auto HoldOff: 0 s
#Channel 1: Range: 100 mV/div Offset: -2.95 V Attenuation: 1 X Sample Mode: Average
#Channel 2: Range: 500 mV/div Offset: -2 V Attenuation: 1 X Sample Mode: Average
#Power Supplies: ON
#Positive Supply: ON
#Voltage: 3.1 V
#Negative Supply: OFF
#Voltage: -1 V

Time (s),Channel 1 (V),Channel 2 (V)
-4.09575e-05,3.048197562362604,-0.003139486808676928
-4.09475e-05,3.048197562362604,-0.003139486808676928
-4.09375e-05,3.049190712207778,-0.003473230138290824
-4.09275e-05,3.048197562362605,-0.0008032835013701486
-4.09175e-05,3.048859662259387,-0.002472000149445819
-4.09075e-05,3.048859662259387,-0.001470770160600043
-4.08975e-05,3.048197562362604,-0.001137026830984489
-4.08875e-05,3.048528612310995,-0.0004695401717541275
-4.08775e-05,3.04952176215617,-0.001137026830984489
-4.08675e-05,3.048197562362604,-0.001137026830984489
-4.08575e-05,3.049190712207778,-0.002138256819830708
-4.08475e-05,3.047535462465822,-0.002138256819830405
-4.08375e-05,3.047866512414213,-0.001470770160600043
-4.08275e-05,3.047866512414213,-0.0008032835013689343
-4.08175e-05,3.04720441251743,-0.001804513490215154
-4.08075e-05,3.047535462465821,-0.002472000149445515
-4.07975e-05,3.046873362569039,-0.001804513490215457
-4.07875e-05,3.0445560129303,-0.001470770160600043
-4.07775e-05,3.047535462465822,-0.003806973467907593
-4.07675e-05,3.048197562362604,-0.003806973467906682
-4.07575e-05,3.047866512414213,-0.001804513490216065
-4.07475e-05,3.048859662259387,-0.002805743479061373
-4.07375e-05,3.049852812104561,-0.001470770160600043
-4.07275e-05,3.048528612310995,-0.001470770160600043
-4.07175e-05,3.047866512414213,-0.0001357968421388765
-4.07075e-05,3.050183862052952,0.0001979464874768411
-4.06975e-05,3.048528612310995,-0.0001357968421382694
-4.06875e-05,3.048528612310995,-0.001137026830984489
-4.06775e-05,3.045218112827083,-0.001137026830985551
-4.06675e-05,3.046542312620648,-0.003473230138292038
-4.06575e-05,3.046873362569039,-0.003473230138292038
-4.06475e-05,3.047866512414213,-0.002805743479061373
-4.06375e-05,3.047535462465822,-0.001470770160601257
-4.06275e-05,3.047535462465822,-0.004140716797521489
-4.06175e-05,3.049190712207778,-0.001470770160600043
-4.06075e-05,3.049190712207778,-0.001804513490215154
-4.05975e-05,3.048528612310995,-0.001470770160600499
-4.05875e-05,3.047866512414213,-0.002472000149445363
-4.05775e-05,3.04952176215617,-0.004474460127138258
-4.05675e-05,3.047866512414213,-0.001804513490215154
-4.05575e-05,3.048528612310995,-0.002805743479061373
-4.05475e-05,3.048197562362604,-0.001137026830985248
-4.05375e-05,3.048859662259387,-0.002138256819830708
-4.05275e-05,3.049190712207778,-0.002805743479061373
-4.05175e-05,3.049190712207778,-0.0008032835013689343
-4.05075e-05,3.048528612310996,-0.001470770160600043
-4.04975e-05,3.049190712207778,-0.001470770160600043
-4.04875e-05,3.047866512414213,-0.001804513490215154
-4.04775e-05,3.048859662259387,-0.003139486808676928
-4.04675e-05,3.047535462465822,-0.002805743479062132
-4.04575e-05,3.04720441251743,-0.004474460127138258
-4.04475e-05,3.046873362569039,-0.003473230138292038
-4.04375e-05,3.048859662259387,-0.002138256819830708
-4.04275e-05,3.048859662259387,-0.002472000149445515
-4.04175e-05,3.048528612310995,-0.001804513490215457
-4.04075e-05,3.04720441251743,-0.0008032835013689343
-4.03975e-05,3.04720441251743,-0.002138256819830708
-4.03875e-05,3.048528612310995,-0.0008032835013689343
-4.03775e-05,3.04687336256904,-0.00247200014944506
-4.03675e-05,3.048197562362604,-0.001137026830984489
-4.03575e-05,3.046542312620648,-0.003806973467907593
-4.03475e-05,3.048197562362604,-0.001470770160600043
-4.03375e-05,3.047866512414213,-0.003806973467906682
-4.03275e-05,3.047535462465822,-0.001804513490215154
-4.03175e-05,3.049190712207778,-0.002472000149445819
-4.03075e-05,3.048859662259387,-0.003139486808676928
-4.02975e-05,3.049190712207777,-0.002472000149445363
-4.02875e-05,3.04720441251743,-0.001470770160600043
-4.02775e-05,3.049190712207778,-0.001804513490215154
-4.02675e-05,3.048528612310995,-0.002138256819830708
-4.02575e-05,3.047535462465822,-0.003806973467907289
-4.02475e-05,3.049190712207777,-0.003139486808677231
-4.02375e-05,3.047866512414213,-0.003473230138292038
-4.02275e-05,3.049190712207778,-0.0001357968421382694
-4.02175e-05,3.049190712207778,-0.0008032835013689343
-4.02075e-05,3.04952176215617,-0.0001357968421385729
-4.01975e-05,3.048528612310995,-0.001470770160600043
-4.01875e-05,3.045880212723865,-0.001470770160600043
-4.01775e-05,3.04720441251743,-0.002472000149445819
-4.01675e-05,3.044887062878692,-0.003473230138291583
-4.01575e-05,3.048197562362604,-0.002805743479061373
-4.01475e-05,3.04720441251743,-0.003473230138292038
-4.01375e-05,3.049190712207778,-0.002805743479061373
-4.01275e-05,3.048859662259387,-0.002472000149445363
-4.01175e-05,3.049190712207778,-0.001470770160600043
-4.01075e-05,3.049852812104561,-0.0004695401717538239
-4.00975e-05,3.050183862052952,-0.003806973467907593
-4.00875e-05,3.04720441251743,-0.004140716797523462
-4.00775e-05,3.047535462465822,-0.005809433445598829
-4.00675e-05,3.050183862052952,-0.002805743479061373
-4.00575e-05,3.046873362569039,-0.003139486808676928
-4.00475e-05,3.048528612310995,-0.0008032835013695414
-4.00375e-05,3.048528612310995,-0.002138256819830101
-4.00275e-05,3.048528612310995,-0.0008032835013689343
-4.00175e-05,3.047535462465822,-0.002138256819830708
-4.00075e-05,3.04952176215617,-0.002138256819830708
-3.99975e-05,3.048528612310996,-0.003139486808676472
-3.99875e-05,3.044887062878691,-0.005475690115984477
-3.99775e-05,3.047535462465822,-0.005141946786368923
-3.99675e-05,3.047866512414213,-0.004140716797522703
-3.99575e-05,3.047866512414213,-0.004140716797522096
-3.99475e-05,3.048859662259387,-0.002805743479061373
-3.99375e-05,3.048859662259387,-0.001804513490215154
-3.99275e-05,3.048528612310995,-0.002472000149445819
-3.99175e-05,3.050183862052952,-0.001470770160599892
-3.99075e-05,3.050514912001344,-0.001137026830984641
-3.98975e-05,3.049190712207778,-0.001470770160600043
-3.98875e-05,3.048859662259387,-0.002805743479061373
-3.98775e-05,3.047204412517431,-0.003139486808677231
-3.98675e-05,3.048197562362604,-0.003806973467907289
-3.98575e-05,3.048528612310995,-0.004808203456753368
-3.98475e-05,3.048859662259387,-0.004808203456753368
-3.98375e-05,3.04720441251743,-0.002472000149445819
-3.98275e-05,3.048528612310995,-0.002472000149445819
-3.98175e-05,3.049190712207778,-0.003473230138292038
-3.98075e-05,3.047866512414213,-0.005141946786368923
-3.97975e-05,3.047866512414213,-0.003139486808676928
-3.97875e-05,3.048197562362605,-0.003473230138292494
-3.97775e-05,3.050183862052952,-0.004474460127138258
-3.97675e-05,3.048528612310995,-0.002805743479061373
-3.97575e-05,3.049190712207778,-0.001470770160600043
-3.97475e-05,3.04985281210456,-0.002138256819830253
-3.97375e-05,3.049190712207779,-0.001137026830984944
-3.97275e-05,3.049190712207778,-0.0001357968421382694
-3.97175e-05,3.048859662259387,-0.0008032835013689343
-3.97075e-05,3.047866512414213,-0.001137026830984185
-3.96975e-05,3.047866512414213,-0.0004695401717541275
-3.96875e-05,3.04720441251743,-0.001804513490215154
-3.96775e-05,3.04720441251743,-0.003806973467907593
-3.96675e-05,3.048197562362604,-0.004474460127138258
-3.96575e-05,3.048528612310995,-0.004140716797522855
-3.96475e-05,3.047866512414213,-0.002805743479061373
-3.96375e-05,3.04952176215617,-0.002138256819830708
-3.96275e-05,3.048859662259387,-0.001804513490215154
-3.96175e-05,3.048859662259387,-0.002472000149445515
-3.96075e-05,3.049190712207778,-0.001804513490215154
-3.95975e-05,3.049190712207778,-0.003139486808676928
-3.95875e-05,3.049190712207778,-0.002472000149445819
-3.95775e-05,3.04720441251743,-0.003806973467907441
-3.95675e-05,3.046873362569039,-0.00347323013829219
-3.95575e-05,3.048528612310995,-0.003139486808676928
-3.95475e-05,3.047866512414213,-0.002138256819830708
-3.95375e-05,3.050183862052951,-0.003139486808676624
-3.95275e-05,3.048197562362605,-0.002472000149446122
-3.95175e-05,3.048197562362604,-0.002472000149445819
-3.95075e-05,3.047866512414213,-0.003473230138292038
-3.94975e-05,3.048859662259387,-0.002472000149445819
-3.94875e-05,3.046211262672258,-0.004474460127137347
-3.94775e-05,3.048528612310995,-0.003806973467907593
-3.94675e-05,3.047866512414213,-0.004808203456753368
-3.94575e-05,3.047866512414213,-0.003139486808676928
-3.94475e-05,3.048859662259387,-0.00213825681983086
-3.94375e-05,3.049190712207778,-0.002472000149445819
-3.94275e-05,3.049852812104561,-0.001804513490215154
-3.94175e-05,3.049852812104561,-0.001804513490215154
-3.94075e-05,3.048528612310995,-0.002472000149446274
-3.93975e-05,3.047866512414213,-0.003473230138292038
-3.93875e-05,3.048528612310995,-0.002472000149445819
-3.93775e-05,3.04720441251743,-0.003473230138292038
-3.93675e-05,3.048528612310995,-0.004474460127137043
-3.93575e-05,3.048528612310995,-0.001804513490216368
-3.93475e-05,3.046873362569039,-0.002805743479061373
-3.93375e-05,3.048859662259387,-0.0004695401717538239
-3.93275e-05,3.04720441251743,-0.001470770160600043
-3.93175e-05,3.046542312620648,-0.002138256819830405
-3.93075e-05,3.048197562362604,-0.003806973467907593
-3.92975e-05,3.047866512414213,-0.004140716797522703
-3.92875e-05,3.047535462465822,-0.002472000149445819
-3.92775e-05,3.048859662259387,-0.004140716797521944
-3.92675e-05,3.048528612310995,-0.002472000149445819
-3.92575e-05,3.049190712207778,-0.002138256819830708
-3.92475e-05,3.049852812104561,-0.001804513490215154
-3.92375e-05,3.04952176215617,-0.0004695401717536721
-3.92275e-05,3.049852812104561,-0.0001357968421382694
-3.92175e-05,3.047535462465822,-0.001804513490215154
-3.92075e-05,3.047866512414213,0.0001979464874768411
-3.91975e-05,3.048197562362604,-0.003473230138292038
-3.91875e-05,3.046873362569039,-0.003473230138292038
-3.91775e-05,3.047535462465822,-0.002472000149445819
-3.91675e-05,3.04720441251743,-0.003473230138292038
-3.91575e-05,3.046873362569039,-0.004808203456753368
-3.91475e-05,3.048528612310994,-0.002472000149446881
-3.91375e-05,3.048197562362604,-0.003473230138292038
-3.91275e-05,3.049190712207778,-0.003139486808676928
-3.91175e-05,3.049190712207778,-0.001804513490215154
-3.91075e-05,3.047204412517431,-0.001137026830984792
-3.90975e-05,3.047866512414213,-0.003806973467907593
-3.90875e-05,3.048859662259387,-0.002138256819830708
-3.90775e-05,3.049190712207778,-0.001470770160600043
-3.90675e-05,3.049852812104561,-0.002138256819830557
-3.90575e-05,3.050183862052952,-0.001804513490215154
-3.90475e-05,3.049852812104561,-0.002472000149445819
-3.90375e-05,3.047866512414213,-0.001470770160600043
-3.90275e-05,3.047535462465822,-0.00180451349021485
-3.90175e-05,3.049190712207777,-0.001137026830984792
-3.90075e-05,3.048197562362604,-0.003139486808676928
-3.89975e-05,3.04952176215617,-0.005475690115984477
-3.89875e-05,3.047535462465822,-0.004140716797523159
-3.89775e-05,3.047866512414213,-0.005141946786368467
-3.89675e-05,3.048528612310995,-0.003473230138292038
-3.89575e-05,3.049852812104561,-0.003806973467907593
-3.89475e-05,3.049852812104561,-0.001137026830984489
-3.89375e-05,3.050183862052952,-0.002138256819830253
-3.89275e-05,3.049852812104561,-0.002138256819830708
-3.89175e-05,3.047866512414213,-0.0008032835013689343
-3.89075e-05,3.048859662259387,-0.001137026830984489
-3.88975e-05,3.047866512414212,-0.001804513490215761
-3.88875e-05,3.046873362569039,-0.003139486808676928
-3.88775e-05,3.046211262672256,-0.0008032835013689343
-3.88675e-05,3.046542312620648,-0.003139486808676928
-3.88575e-05,3.046873362569039,-0.002472000149446274
-3.88475e-05,3.047535462465821,-0.003473230138291583
-3.88375e-05,3.048859662259387,-0.002805743479061373
-3.88275e-05,3.046211262672256,-0.003139486808676928
-3.88175e-05,3.048528612310995,-0.002138256819831164
-3.88075e-05,3.048528612310995,-0.003139486808676472
-3.87975e-05,3.047535462465822,-0.002805743479061373
-3.87875e-05,3.048528612310995,-0.003806973467907593
-3.87775e-05,3.047866512414213,-0.002805743479061373
-3.87675e-05,3.048528612310995,-0.002138256819831012
-3.87575e-05,3.048859662259387,-0.001470770160600043
-3.87475e-05,3.049190712207778,-0.002138256819830708
-3.87375e-05,3.047866512414213,-0.001804513490215154
-3.87275e-05,3.049190712207778,-0.0008032835013693896
-3.87175e-05,3.048859662259387,-0.001804513490215154
-3.87075e-05,3.046873362569039,-0.005475690115984477
-3.86975e-05,3.048859662259387,-0.004474460127138258
-3.86875e-05,3.049190712207778,-0.005141946786368164
-3.86775e-05,3.04952176215617,-0.003473230138292797
-3.86675e-05,3.048859662259387,-0.002138256819830708
-3.86575e-05,3.050845961949735,-0.003473230138292038
-3.86475e-05,3.04952176215617,-0.002472000149445667
-3.86375e-05,3.050845961949734,-0.00213825681983086
-3.86275e-05,3.04952176215617,-0.002138256819830708
-3.86175e-05,3.04952176215617,-0.002472000149445819
-3.86075e-05,3.048197562362604,-0.002805743479061373
-3.85975e-05,3.048197562362604,-0.004140716797522096
-3.85875e-05,3.048859662259387,-0.003806973467907593
-3.85775e-05,3.050183862052952,-0.004140716797522703
-3.85675e-05,3.051177011898126,-0.003473230138292038
-3.85575e-05,3.048528612310996,-0.002805743479060463
-3.85475e-05,3.049852812104561,-0.0008032835013689343
-3.85375e-05,3.049190712207778,-0.002472000149445819
-3.85275e-05,3.050183862052952,-0.002138256819830708
-3.85175e-05,3.047866512414213,-0.001804513490216216
-3.85075e-05,3.048197562362604,-0.004140716797521641
-3.84975e-05,3.046542312620648,-0.003806973467907593
-3.84875e-05,3.048197562362604,-0.005809433445599588
-3.84775e-05,3.048859662259387,-0.002805743479060918
-3.84675e-05,3.049521762156169,-0.001804513490215609
-3.84575e-05,3.049190712207778,-0.002138256819830708
-3.84475e-05,3.049852812104561,-0.002138256819830708
-3.84375e-05,3.048197562362604,-0.002138256819830708
-3.84275e-05,3.048528612310995,-0.001804513490215306
-3.84175e-05,3.047866512414213,-0.003139486808676928
-3.84075e-05,3.048197562362604,-0.002805743479061373
-3.83975e-05,3.048528612310995,-0.003473230138292038
-3.83875e-05,3.047535462465822,-0.003473230138291128
-3.83775e-05,3.048528612310995,-0.001470770160600043
-3.83675e-05,3.04720441251743,-0.002805743479061373
-3.83575e-05,3.047535462465822,-0.001804513490215154
-3.83475e-05,3.048197562362604,-0.00280574347906198
-3.83375e-05,3.047866512414213,-0.004140716797522703
-3.83275e-05,3.048528612310995,-0.003139486808676928
-3.83175e-05,3.048197562362604,-0.002472000149445819
-3.83075e-05,3.048859662259387,-0.004808203456753216
-3.82975e-05,3.048528612310995,-0.00447446012713841
-3.82875e-05,3.049852812104561,-0.003806973467907593
-3.82775e-05,3.04952176215617,-0.001470770160600043
-3.82675e-05,3.049852812104561,-0.003139486808676928
-3.82575e-05,3.050845961949734,-0.001470770160600802
-3.82475e-05,3.049190712207778,-0.0004695401717538239
-3.82375e-05,3.049190712207778,-0.002138256819830708
-3.82275e-05,3.047535462465822,-0.001470770160600043
-3.82175e-05,3.048528612310995,-0.002472000149445363
-3.82075e-05,3.047535462465822,-0.004474460127138258
-3.81975e-05,3.048528612310995,-0.005141946786368923
-3.81875e-05,3.047866512414213,-0.004474460127138258
-3.81775e-05,3.048197562362604,-0.003806973467907137
-3.81675e-05,3.048197562362604,-0.002805743479061373
-3.81575e-05,3.048197562362604,-0.003473230138292038
-3.81475e-05,3.04952176215617,-0.003139486808676928
-3.81375e-05,3.048528612310996,-0.00180451349021485
-3.81275e-05,3.049521762156169,-0.001137026830984792
-3.81175e-05,3.049190712207778,-0.001804513490215154
-3.81075e-05,3.049190712207778,-0.001137026830984489
-3.80975e-05,3.04952176215617,-0.002138256819830708
-3.80875e-05,3.047535462465822,-0.003473230138291431
-3.80775e-05,3.049190712207778,-0.003139486808676928
-3.80675e-05,3.046873362569039,-0.003806973467907593
-3.80575e-05,3.047866512414213,-0.002472000149445819
-3.80475e-05,3.047866512414213,-0.001804513490215457
-3.80375e-05,3.048197562362604,-0.003139486808676928
-3.80275e-05,3.048528612310995,-0.002138256819830708
-3.80175e-05,3.048528612310995,-0.004140716797522703
-3.80075e-05,3.049521762156169,-0.00480820345675352
-3.79975e-05,3.048197562362604,-0.005141946786368923
-3.79875e-05,3.04952176215617,-0.003473230138292038
-3.79775e-05,3.048528612310995,-0.003473230138292038
-3.79675e-05,3.048197562362605,-0.001470770160600195
-3.79575e-05,3.050183862052951,-0.001804513490215002
-3.79475e-05,3.048859662259387,-0.002472000149445819
-3.79375e-05,3.049852812104561,-0.0008032835013689343
-3.79275e-05,3.047866512414213,-0.002805743479060614
-3.79175e-05,3.047866512414213,-0.001137026830985248
-3.79075e-05,3.047866512414213,-0.004474460127138258
-3.78975e-05,3.047866512414213,-0.004808203456753368
-3.78875e-05,3.048528612310995,-0.004808203456753368
-3.78775e-05,3.048197562362604,-0.004808203456753368
-3.78675e-05,3.049852812104561,-0.002138256819830708
-3.78575e-05,3.049852812104561,-0.002805743479061373
-3.78475e-05,3.049852812104561,-0.002472000149445819
-3.78375e-05,3.048859662259387,-0.001137026830984944
-3.78275e-05,3.048528612310995,-0.002138256819830708
-3.78175e-05,3.048528612310995,-0.001137026830984489
-3.78075e-05,3.046873362569039,-0.001470770160600043
-3.77975e-05,3.048197562362605,-0.00180451349021485
-3.77875e-05,3.050514912001343,-0.001137026830984792
-3.77775e-05,3.04952176215617,-0.0004695401717538239
-3.77675e-05,3.04952176215617,-0.002138256819830708
-3.77575e-05,3.048197562362605,-0.002138256819830253
-3.77475e-05,3.050183862052951,-0.001137026830984944
-3.77375e-05,3.048859662259387,-0.0008032835013689343
-3.77275e-05,3.048859662259387,-0.0004695401717538239
-3.77175e-05,3.049190712207778,-0.0001357968421382694
-3.77075e-05,3.047204412517431,-0.001804513490214395
-3.76975e-05,3.049852812104561,-0.002472000149445819
-3.76875e-05,3.049190712207778,-0.003473230138292038
-3.76775e-05,3.04952176215617,-0.002472000149445819
-3.76675e-05,3.04985281210456,-0.002472000149445515
-3.76575e-05,3.048859662259387,-0.001804513490215154
-3.76475e-05,3.04952176215617,-0.0004695401717538239
-3.76375e-05,3.048859662259387,-0.0008032835013689343
-3.76275e-05,3.049521762156169,-0.0001357968421385729
-3.76175e-05,3.048528612310996,-0.0008032835013686308
-3.76075e-05,3.049190712207778,-0.001804513490215154
-3.75975e-05,3.047866512414213,-0.003139486808676928
-3.75875e-05,3.047204412517431,-0.003139486808677383
-3.75775e-05,3.049190712207777,-0.004140716797522248
-3.75675e-05,3.04720441251743,-0.003139486808676928
-3.75575e-05,3.049190712207778,-0.001804513490215154
-3.75475e-05,3.047866512414213,-0.003139486808676928
-3.75375e-05,3.048528612310995,-0.002805743479061525
-3.75275e-05,3.048528612310995,-0.002805743479061373
-3.75175e-05,3.048859662259387,-0.001470770160600043
-3.75075e-05,3.04720441251743,-0.004474460127138258
-3.74975e-05,3.049190712207778,-0.00347323013829219
-3.74875e-05,3.04952176215617,-0.003806973467907593
-3.74775e-05,3.049190712207778,-0.001470770160600043
-3.74675e-05,3.050514912001344,-0.003139486808676928
-3.74575e-05,3.050183862052952,-0.001804513490214547
-3.74475e-05,3.048859662259387,-0.0004695401717544311
-3.74375e-05,3.04952176215617,-0.0001357968421382694
-3.74275e-05,3.049852812104561,-0.0004695401717538239
-3.74175e-05,3.048859662259386,-0.001137026830985096
-3.74075e-05,3.047204412517431,-0.002472000149445212
-3.73975e-05,3.048197562362604,-0.002805743479061373
-3.73875e-05,3.047866512414213,-0.003139486808676928
-3.73775e-05,3.049190712207778,-0.003139486808676928
-3.73675e-05,3.048528612310996,-0.002472000149446122
-3.73575e-05,3.04952176215617,-0.003139486808676928
-3.73475e-05,3.04952176215617,-0.003139486808676928
-3.73375e-05,3.050514912001344,-0.002805743479061373
-3.73275e-05,3.049190712207779,-0.001137026830984489
-3.73175e-05,3.049852812104561,-0.001137026830984489
-3.73075e-05,3.048197562362604,-0.001470770160600043
-3.72975e-05,3.048197562362604,-0.001470770160600043
