Pruebas Experimentales/Medicion de tiempos/ADC/Medicion_Wet_y_Temp_Adaptador2_cap104yelectro10uF_LedON_zoomOUT2.csv

#Digilent WaveForms Oscilloscope Acquisition
#Device Name: Discovery2
#Serial Number: SN:210321B0DECA
#Date Time: 2023-12-07 20:58:24.366
#Sample rate: 160000Hz
#Samples: 8192
#Trigger: Source: Channel 2 Type: Edge Condition: Rising Level: 2.75 V Hyst.: Auto HoldOff: 0 s
#Channel 1: Range: 100 mV/div Offset: -2.95 V Attenuation: 1 X Sample Mode: Average
#Channel 2: Range: 500 mV/div Offset: -2 V Attenuation: 1 X Sample Mode: Average
#Power Supplies: ON
#Positive Supply: ON
#Voltage: 3.1 V
#Negative Supply: OFF
#Voltage: -1 V

Time (s),Channel 1 (V),Channel 2 (V)
-0.01559839662977867,3.047866512414213,-0.002805743479061373
-0.01559214662977867,3.047535462465822,-0.003139486808676928
-0.01558589662977867,3.047535462465822,-0.003139486808676928
-0.01557964662977867,3.047866512414213,-0.003473230138292038
-0.01557339662977867,3.047535462465822,-0.003139486808676928
-0.01556714662977867,3.047535462465822,-0.003139486808676928
-0.01556089662977867,3.047535462465822,-0.003139486808676776
-0.01555464662977867,3.047866512414213,-0.002805743479061373
-0.01554839662977867,3.047535462465822,-0.002805743479061373
-0.01554214662977867,3.047866512414213,-0.002805743479061373
-0.01553589662977867,3.047535462465822,-0.003139486808676928
-0.01552964662977867,3.047535462465822,-0.002805743479061525
-0.01552339662977867,3.047866512414213,-0.003139486808676928
-0.01551714662977867,3.047535462465822,-0.002805743479061373
-0.01551089662977867,3.047866512414213,-0.003473230138292038
-0.01550464662977867,3.048197562362604,-0.002805743479061373
-0.01549839662977867,3.047866512414213,-0.003139486808676776
-0.01549214662977867,3.047866512414213,-0.002805743479061373
-0.01548589662977867,3.047866512414213,-0.003139486808676928
-0.01547964662977867,3.047866512414213,-0.003473230138292038
-0.01547339662977867,3.047535462465822,-0.002805743479061373
-0.01546714662977867,3.047535462465822,-0.003139486808676776
-0.01546089662977867,3.047866512414213,-0.002805743479061373
-0.01545464662977867,3.047866512414213,-0.002805743479061373
-0.01544839662977867,3.047866512414213,-0.003139486808676928
-0.01544214662977867,3.047866512414213,-0.002805743479061373
-0.01543589662977867,3.047866512414213,-0.003139486808676928
-0.01542964662977867,3.047866512414213,-0.003139486808676928
-0.01542339662977867,3.047866512414213,-0.002472000149445819
-0.01541714662977867,3.047866512414213,-0.002805743479061373
-0.01541089662977867,3.047866512414213,-0.002472000149445819
-0.01540464662977867,3.047866512414213,-0.003139486808676776
-0.01539839662977867,3.047866512414213,-0.002805743479061373
-0.01539214662977867,3.047866512414213,-0.002805743479061373
-0.01538589662977867,3.047866512414213,-0.002805743479061373
-0.01537964662977867,3.047866512414213,-0.003139486808676928
-0.01537339662977867,3.047535462465822,-0.002472000149446122
-0.01536714662977867,3.047866512414213,-0.002805743479061373
-0.01536089662977867,3.047866512414213,-0.002805743479061373
-0.01535464662977867,3.048197562362604,-0.002805743479061373
-0.01534839662977867,3.047866512414213,-0.003139486808676928
-0.01534214662977867,3.047535462465822,-0.002805743479061525
-0.01533589662977867,3.047866512414213,-0.002805743479061373
-0.01532964662977867,3.048197562362604,-0.002805743479061373
-0.01532339662977867,3.048197562362604,-0.002805743479061373
-0.01531714662977867,3.048197562362604,-0.002805743479061373
-0.01531089662977867,3.048197562362604,-0.002805743479061373
-0.01530464662977867,3.048197562362604,-0.003139486808676928
-0.01529839662977867,3.047866512414213,-0.002805743479061373
-0.01529214662977867,3.047866512414213,-0.002805743479061373
-0.01528589662977867,3.048197562362604,-0.002805743479061373
-0.01527964662977867,3.047866512414213,-0.003139486808676776
-0.01527339662977867,3.048197562362604,-0.002472000149445819
-0.01526714662977867,3.048197562362604,-0.003139486808676928
-0.01526089662977867,3.048197562362604,-0.002805743479061373
-0.01525464662977867,3.048197562362604,-0.002472000149445819
-0.01524839662977867,3.047866512414213,-0.002805743479061222
-0.01524214662977867,3.047866512414213,-0.002472000149445819
-0.01523589662977867,3.047866512414213,-0.002805743479061373
-0.01522964662977867,3.047866512414213,-0.002805743479061373
-0.01522339662977867,3.047866512414213,-0.003139486808676928
-0.01521714662977867,3.048197562362604,-0.002805743479061525
-0.01521089662977867,3.048197562362604,-0.002805743479061373
-0.01520464662977867,3.047866512414213,-0.003139486808676928
-0.01519839662977867,3.047866512414213,-0.002805743479061373
-0.01519214662977867,3.047866512414213,-0.002805743479061373
-0.01518589662977867,3.047866512414213,-0.002805743479061373
-0.01517964662977867,3.047866512414213,-0.002805743479061373
-0.01517339662977867,3.047866512414213,-0.002472000149445819
-0.01516714662977867,3.047866512414213,-0.002805743479061373
-0.01516089662977867,3.047535462465822,-0.002805743479061373
-0.01515464662977867,3.048197562362604,-0.002472000149445971
-0.01514839662977867,3.047535462465822,-0.002805743479061373
-0.01514214662977867,3.048197562362604,-0.002805743479061373
-0.01513589662977867,3.047866512414213,-0.002805743479061373
-0.01512964662977867,3.047866512414213,-0.002805743479061373
-0.01512339662977867,3.047866512414213,-0.003139486808676776
-0.01511714662977867,3.047866512414213,-0.002472000149445819
-0.01511089662977867,3.048197562362604,-0.002805743479061373
-0.01510464662977867,3.047535462465822,-0.002805743479061373
-0.01509839662977867,3.048197562362604,-0.002805743479061373
-0.01509214662977867,3.048197562362604,-0.003139486808676776
-0.01508589662977867,3.047866512414213,-0.003139486808676928
-0.01507964662977867,3.048197562362604,-0.002805743479061373
-0.01507339662977867,3.047866512414213,-0.002805743479061373
-0.01506714662977867,3.047866512414213,-0.003139486808676928
-0.01506089662977867,3.047866512414213,-0.002805743479061525
-0.01505464662977867,3.047535462465822,-0.002472000149445819
-0.01504839662977867,3.047866512414213,-0.002805743479061373
-0.01504214662977867,3.04720441251743,-0.002805743479061373
-0.01503589662977867,3.047535462465822,-0.002472000149445819
-0.01502964662977867,3.047866512414213,-0.002472000149445819
-0.01502339662977867,3.047535462465822,-0.003139486808676928
-0.01501714662977867,3.047866512414213,-0.002805743479061373
-0.01501089662977867,3.047866512414213,-0.002805743479061373
-0.01500464662977867,3.047866512414213,-0.002805743479061373
-0.01499839662977867,3.047866512414213,-0.002805743479061373
-0.01499214662977867,3.047535462465822,-0.002472000149445819
-0.01498589662977867,3.047866512414213,-0.002805743479061373
-0.01497964662977867,3.047866512414213,-0.003139486808676928
-0.01497339662977867,3.047535462465822,-0.002472000149445819
-0.01496714662977867,3.047866512414213,-0.003139486808676928
-0.01496089662977867,3.047866512414213,-0.003139486808676928
-0.01495464662977867,3.047535462465822,-0.002805743479061373
-0.01494839662977867,3.047866512414213,-0.002805743479061373
-0.01494214662977867,3.047535462465822,-0.003139486808676928
-0.01493589662977867,3.047866512414213,-0.002472000149445819
-0.01492964662977867,3.047866512414213,-0.002805743479061373
-0.01492339662977867,3.047535462465822,-0.002805743479061373
-0.01491714662977867,3.047535462465822,-0.003139486808676928
-0.01491089662977867,3.047866512414213,-0.002805743479061373
-0.01490464662977867,3.047535462465822,-0.002805743479061373
-0.01489839662977867,3.047535462465822,-0.002805743479061373
-0.01489214662977867,3.047866512414213,-0.002805743479061373
-0.01488589662977867,3.048197562362604,-0.002805743479061373
-0.01487964662977867,3.047535462465822,-0.002805743479061373
-0.01487339662977867,3.047535462465822,-0.002805743479061373
-0.01486714662977867,3.047866512414213,-0.002805743479061222
-0.01486089662977867,3.047535462465822,-0.002472000149445819
-0.01485464662977867,3.047535462465822,-0.002805743479061373
-0.01484839662977867,3.04720441251743,-0.003139486808676928
-0.01484214662977867,3.047866512414213,-0.003139486808676928
-0.01483589662977867,3.047535462465822,-0.003139486808676776
-0.01482964662977867,3.047866512414213,-0.002805743479061373
-0.01482339662977867,3.047866512414213,-0.003139486808676928
-0.01481714662977867,3.047866512414213,-0.002805743479061373
-0.01481089662977867,3.048197562362604,-0.002805743479061373
-0.01480464662977867,3.047535462465822,-0.002805743479061373
-0.01479839662977867,3.047866512414213,-0.002805743479061373
-0.01479214662977867,3.047866512414213,-0.003139486808676928
-0.01478589662977867,3.047535462465822,-0.002805743479061373
-0.01477964662977867,3.047535462465822,-0.002805743479061373
-0.01477339662977867,3.047866512414213,-0.003139486808676776
-0.01476714662977867,3.047866512414213,-0.002805743479061373
-0.01476089662977867,3.047866512414213,-0.002805743479061373
-0.01475464662977867,3.047866512414213,-0.002805743479061373
-0.01474839662977867,3.047535462465822,-0.002805743479061373
-0.01474214662977867,3.047535462465822,-0.002805743479061373
-0.01473589662977867,3.047866512414213,-0.002805743479061373
-0.01472964662977867,3.04720441251743,-0.002805743479061373
-0.01472339662977867,3.047535462465822,-0.003473230138292038
-0.01471714662977867,3.047535462465822,-0.002805743479061373
-0.01471089662977867,3.047535462465822,-0.002805743479061525
-0.01470464662977867,3.047535462465822,-0.003139486808676928
-0.01469839662977867,3.047535462465822,-0.003139486808676928
-0.01469214662977867,3.047535462465822,-0.002805743479061373
-0.01468589662977867,3.047535462465822,-0.002805743479061373
-0.01467964662977867,3.047866512414213,-0.002805743479061373
-0.01467339662977867,3.047866512414213,-0.002805743479061373
-0.01466714662977867,3.047866512414213,-0.002805743479061373
-0.01466089662977867,3.048197562362604,-0.002805743479061373
-0.01465464662977867,3.048197562362604,-0.002805743479061373
-0.01464839662977867,3.047866512414213,-0.002805743479061373
-0.01464214662977867,3.047866512414213,-0.002805743479061373
-0.01463589662977867,3.047866512414213,-0.002805743479061373
-0.01462964662977867,3.047535462465822,-0.002805743479061373
-0.01462339662977867,3.047535462465822,-0.002472000149445819
-0.01461714662977867,3.047866512414213,-0.003139486808676776
-0.01461089662977867,3.047535462465822,-0.002805743479061373
-0.01460464662977867,3.047866512414213,-0.003139486808676928
-0.01459839662977867,3.047866512414213,-0.002805743479061373
-0.01459214662977867,3.047866512414213,-0.002472000149445819
-0.01458589662977867,3.048197562362604,-0.002805743479061222
-0.01457964662977867,3.047866512414213,-0.002805743479061373
-0.01457339662977867,3.047866512414213,-0.002805743479061373
-0.01456714662977867,3.047866512414213,-0.002805743479061373
-0.01456089662977867,3.047866512414213,-0.003139486808676928
-0.01455464662977867,3.047535462465822,-0.003139486808676928
-0.01454839662977867,3.047866512414213,-0.002805743479061373
-0.01454214662977867,3.048197562362604,-0.002805743479061373
-0.01453589662977867,3.047866512414213,-0.002805743479061373
-0.01452964662977867,3.047535462465822,-0.002472000149445819
-0.01452339662977867,3.047866512414213,-0.002805743479061222
-0.01451714662977867,3.047866512414213,-0.003473230138292038
-0.01451089662977867,3.047866512414213,-0.002805743479061373
-0.01450464662977867,3.047535462465822,-0.002805743479061373
-0.01449839662977867,3.047866512414213,-0.003139486808676928
-0.01449214662977867,3.047866512414213,-0.002805743479061525
-0.01448589662977867,3.047535462465822,-0.002472000149445819
-0.01447964662977867,3.047866512414213,-0.002805743479061373
-0.01447339662977867,3.047866512414213,-0.003139486808676928
-0.01446714662977867,3.047535462465822,-0.002805743479061373
-0.01446089662977867,3.047866512414213,-0.002805743479061373
-0.01445464662977867,3.048197562362604,-0.003139486808676928
-0.01444839662977867,3.047535462465822,-0.003139486808676928
-0.01444214662977867,3.047866512414213,-0.002805743479061373
-0.01443589662977867,3.047866512414213,-0.003139486808676928
-0.01442964662977867,3.047866512414213,-0.003139486808676928
-0.01442339662977867,3.047866512414213,-0.002805743479061373
-0.01441714662977867,3.047535462465822,-0.002805743479061373
-0.01441089662977867,3.047535462465822,-0.002805743479061373
-0.01440464662977867,3.047535462465822,-0.002805743479061373
-0.01439839662977867,3.04720441251743,-0.002805743479061373
-0.01439214662977867,3.047866512414213,-0.003139486808676928
-0.01438589662977867,3.047535462465822,-0.002472000149445819
-0.01437964662977867,3.047535462465822,-0.003139486808676928
-0.01437339662977867,3.047535462465822,-0.002805743479061373
-0.01436714662977867,3.047535462465822,-0.002805743479061373
-0.01436089662977867,3.047866512414213,-0.002805743479061373
-0.01435464662977867,3.047866512414213,-0.002805743479061373
-0.01434839662977867,3.047866512414213,-0.002805743479061373
-0.01434214662977867,3.047535462465822,-0.003139486808676928
-0.01433589662977867,3.047866512414213,-0.003139486808676928
-0.01432964662977867,3.047535462465822,-0.002805743479061373
-0.01432339662977867,3.047866512414213,-0.002805743479061373
-0.01431714662977867,3.047866512414213,-0.003139486808676928
-0.01431089662977867,3.047866512414213,-0.002805743479061373
-0.01430464662977867,3.047866512414213,-0.002472000149445971
-0.01429839662977867,3.047866512414213,-0.002805743479061373
-0.01429214662977867,3.047535462465822,-0.002805743479061373
-0.01428589662977867,3.047535462465822,-0.002805743479061373
-0.01427964662977867,3.047535462465822,-0.002472000149445819
-0.01427339662977867,3.047535462465822,-0.002805743479061222
-0.01426714662977867,3.047535462465822,-0.002805743479061373
-0.01426089662977867,3.047866512414213,-0.002805743479061373
-0.01425464662977867,3.047866512414213,-0.003139486808676928
-0.01424839662977867,3.047535462465822,-0.002805743479061373
-0.01424214662977867,3.047866512414213,-0.002805743479061373
-0.01423589662977867,3.047535462465822,-0.002805743479061373
-0.01422964662977867,3.047535462465822,-0.002805743479061373
-0.01422339662977867,3.047866512414213,-0.002805743479061373
-0.01421714662977867,3.047535462465822,-0.002805743479061373
-0.01421089662977867,3.04720441251743,-0.002805743479061373
-0.01420464662977867,3.047866512414213,-0.002805743479061373
-0.01419839662977867,3.047535462465822,-0.002805743479061373
-0.01419214662977867,3.047535462465822,-0.002805743479061373
-0.01418589662977867,3.047535462465822,-0.002472000149445819
-0.01417964662977867,3.047535462465822,-0.002805743479061373
-0.01417339662977867,3.047866512414213,-0.003139486808676624
-0.01416714662977867,3.047535462465822,-0.002472000149445819
-0.01416089662977867,3.047535462465822,-0.002472000149445819
-0.01415464662977867,3.047535462465822,-0.002805743479061373
-0.01414839662977867,3.047866512414213,-0.002805743479061373
-0.01414214662977867,3.047204412517431,-0.002805743479061373
-0.01413589662977867,3.047866512414213,-0.002805743479061373
-0.01412964662977867,3.047866512414213,-0.003139486808676928
-0.01412339662977867,3.047535462465822,-0.002805743479061373
-0.01411714662977867,3.047866512414213,-0.003473230138292038
-0.01411089662977867,3.047535462465822,-0.002805743479061373
-0.01410464662977867,3.047866512414213,-0.002805743479061373
-0.01409839662977867,3.047866512414213,-0.003139486808676928
-0.01409214662977867,3.047535462465822,-0.003139486808676928
-0.01408589662977867,3.048197562362604,-0.003139486808676928
-0.01407964662977867,3.047535462465822,-0.002472000149446122
-0.01407339662977867,3.047866512414213,-0.003139486808676928
-0.01406714662977867,3.047535462465822,-0.002805743479061373
-0.01406089662977867,3.047866512414213,-0.002805743479061373
-0.01405464662977867,3.047866512414213,-0.002805743479061373
-0.01404839662977867,3.047866512414213,-0.003139486808676624
-0.01404214662977867,3.047535462465822,-0.002472000149445819
-0.01403589662977867,3.047866512414213,-0.003139486808676928
-0.01402964662977867,3.047535462465822,-0.002805743479061373
-0.01402339662977867,3.047866512414213,-0.002472000149445819
-0.01401714662977867,3.047866512414213,-0.002805743479061373
-0.01401089662977867,3.047866512414213,-0.002805743479061373
-0.01400464662977867,3.047866512414213,-0.002805743479061373
-0.01399839662977867,3.047866512414213,-0.002472000149445819
-0.01399214662977867,3.047535462465822,-0.002805743479061373
-0.01398589662977867,3.047866512414213,-0.002805743479061222
-0.01397964662977867,3.047866512414213,-0.002472000149445819
-0.01397339662977867,3.047866512414213,-0.002805743479061373
-0.01396714662977867,3.047866512414213,-0.002805743479061373
-0.01396089662977867,3.047535462465822,-0.002805743479061373
-0.01395464662977867,3.047866512414213,-0.002805743479061525
-0.01394839662977867,3.047866512414213,-0.003139486808676928
-0.01394214662977867,3.048197562362604,-0.002472000149445819
-0.01393589662977867,3.048197562362604,-0.002805743479061373
-0.01392964662977867,3.047535462465822,-0.002805743479061373
-0.01392339662977867,3.047866512414213,-0.002805743479061373
-0.01391714662977867,3.047866512414213,-0.002805743479061373
-0.01391089662977867,3.047866512414213,-0.002472000149445819
-0.01390464662977867,3.047866512414213,-0.002805743479061373
-0.01389839662977867,3.047535462465822,-0.002805743479061373
-0.01389214662977867,3.048197562362604,-0.002805743479061373
-0.01388589662977867,3.047866512414213,-0.002805743479061373
-0.01387964662977867,3.047866512414213,-0.002472000149445819
-0.01387339662977867,3.047866512414213,-0.002805743479061373
-0.01386714662977867,3.048197562362604,-0.002805743479061373
-0.01386089662977867,3.047866512414213,-0.002472000149445971
-0.01385464662977867,3.047535462465822,-0.002805743479061373
-0.01384839662977867,3.047866512414213,-0.002805743479061373
-0.01384214662977867,3.047866512414213,-0.002472000149445819
-0.01383589662977867,3.048197562362604,-0.002472000149445819
-0.01382964662977867,3.047866512414213,-0.002805743479061525
-0.01382339662977867,3.047866512414213,-0.003139486808676928
-0.01381714662977867,3.047535462465822,-0.002472000149445819
-0.01381089662977867,3.047866512414213,-0.002805743479061373
-0.01380464662977867,3.048197562362604,-0.002805743479061373
-0.01379839662977867,3.048197562362604,-0.003139486808676776
-0.01379214662977867,3.047866512414213,-0.002805743479061373
-0.01378589662977867,3.047866512414213,-0.002805743479061373
-0.01377964662977867,3.047535462465822,-0.002805743479061373
-0.01377339662977867,3.047535462465822,-0.002805743479061373
-0.01376714662977867,3.047866512414213,-0.002805743479061373
-0.01376089662977867,3.047866512414213,-0.002805743479061373
-0.01375464662977867,3.047866512414213,-0.002805743479061373
-0.01374839662977867,3.047866512414213,-0.002805743479061373
-0.01374214662977867,3.047866512414213,-0.002805743479061373
-0.01373589662977867,3.047866512414213,-0.003139486808676776
-0.01372964662977867,3.047866512414213,-0.002805743479061373
-0.01372339662977867,3.047866512414213,-0.002472000149445819
-0.01371714662977867,3.047866512414213,-0.002805743479061373
-0.01371089662977867,3.047866512414213,-0.002805743479061373
-0.01370464662977867,3.047866512414213,-0.002805743479061373
-0.01369839662977867,3.047866512414213,-0.002472000149445819
-0.01369214662977867,3.047866512414213,-0.003139486808676928
-0.01368589662977867,3.047866512414213,-0.002805743479061373
-0.01367964662977867,3.047866512414213,-0.002805743479061373
-0.01367339662977867,3.047866512414213,-0.002805743479061373
-0.01366714662977867,3.047866512414213,-0.003473230138292038
-0.01366089662977867,3.047866512414213,-0.002805743479061373
-0.01365464662977867,3.047535462465822,-0.002805743479061373
-0.01364839662977867,3.047866512414213,-0.002805743479061373
-0.01364214662977867,3.047866512414213,-0.002472000149445971
-0.01363589662977867,3.047535462465822,-0.002805743479061373
-0.01362964662977867,3.047866512414213,-0.003139486808676928
-0.01362339662977867,3.047866512414213,-0.002805743479061373
-0.01361714662977867,3.047866512414213,-0.002805743479061373
