Pruebas Experimentales/Medicion de tiempos/ADC/Medicion_Wet_y_Temp_Adaptador2_Nocaps_LedON_zoomINwakeup2.csv

#Digilent WaveForms Oscilloscope Acquisition
#Device Name: Discovery2
#Serial Number: SN:210321B0DECA
#Date Time: 2023-12-07 20:39:51.892
#Sample rate: 3.33333e+07Hz
#Samples: 8192
#Trigger: Source: Channel 1 Type: Edge Condition: Falling Level: 2.98 V Hyst.: Auto HoldOff: 0 s
#Channel 1: Range: 100 mV/div Offset: -2.95 V Attenuation: 1 X Sample Mode: Average
#Channel 2: Range: 500 mV/div Offset: -2 V Attenuation: 1 X Sample Mode: Average
#Power Supplies: ON
#Positive Supply: ON
#Voltage: 3.1 V
#Negative Supply: OFF
#Voltage: -1 V

Time (s),Channel 1 (V),Channel 2 (V)
-4.289339374038903e-05,3.048859662259387,-0.001470770160600043
-4.286339374038902e-05,3.046542312620648,-0.003806973467907593
-4.283339374038901e-05,3.046542312620648,-0.004808203456752913
-4.280339374038902e-05,3.047535462465822,-0.003806973467907593
-4.277339374038901e-05,3.046542312620648,-0.005141946786369378
-4.274339374038903e-05,3.046542312620648,-0.006143176775214687
-4.271339374038902e-05,3.047866512414213,-0.002805743479061373
-4.268339374038903e-05,3.047866512414213,-0.002805743479061373
-4.265339374038902e-05,3.045880212723865,-0.005475690115984477
-4.262339374038901e-05,3.046542312620649,-0.004140716797521793
-4.259339374038902e-05,3.049190712207778,-0.002138256819830708
-4.256339374038901e-05,3.047535462465822,-0.002472000149446578
-4.253339374038903e-05,3.04720441251743,-0.004140716797521944
-4.250339374038902e-05,3.047535462465822,-0.003473230138292038
-4.247339374038903e-05,3.04720441251743,-0.003806973467907441
-4.244339374038902e-05,3.046211262672256,-0.003806973467907593
-4.241339374038901e-05,3.048197562362604,-0.001470770160600954
-4.238339374038902e-05,3.046873362569039,-0.003473230138292038
-4.235339374038901e-05,3.044887062878692,-0.004808203456753065
-4.232339374038903e-05,3.046873362569038,-0.004140716797523007
-4.229339374038902e-05,3.047535462465822,-0.002805743479061373
-4.226339374038903e-05,3.046873362569039,-0.003806973467907137
-4.223339374038902e-05,3.047535462465822,-0.003139486808676928
-4.220339374038901e-05,3.047535462465821,-0.003473230138292494
-4.217339374038903e-05,3.046873362569039,-0.004474460127138258
-4.214339374038901e-05,3.04720441251743,-0.003139486808676928
-4.211339374038903e-05,3.047535462465822,-0.002138256819831164
-4.208339374038902e-05,3.046542312620648,-0.002805743479061373
-4.205339374038902e-05,3.045880212723865,-0.004140716797522703
-4.202339374038902e-05,3.046873362569039,-0.003139486808676928
-4.199339374038902e-05,3.04720441251743,-0.003139486808676928
-4.196339374038903e-05,3.045880212723865,-0.004808203456753368
-4.193339374038901e-05,3.047866512414213,-0.003473230138292038
-4.190339374038902e-05,3.048528612310995,-0.001804513490215154
-4.187339374038902e-05,3.04720441251743,-0.002805743479061373
-4.184339374038902e-05,3.045880212723865,-0.005141946786368923
-4.181339374038902e-05,3.04720441251743,-0.003473230138292038
-4.178339374038902e-05,3.047535462465822,-0.003473230138292038
-4.175339374038903e-05,3.047866512414213,-0.002472000149445819
-4.172339374038901e-05,3.047535462465822,-0.002472000149445819
-4.169339374038902e-05,3.047535462465822,-0.004474460127138258
-4.166339374038902e-05,3.046211262672256,-0.004808203456753368
-4.163339374038902e-05,3.04720441251743,-0.003139486808676928
-4.160339374038902e-05,3.047866512414213,-0.002138256819830708
-4.157339374038902e-05,3.047535462465822,-0.004140716797522703
-4.154339374038903e-05,3.047866512414213,-0.004140716797522703
-4.151339374038901e-05,3.047535462465822,-0.003139486808676928
-4.148339374038902e-05,3.048528612310995,-0.002805743479061373
-4.145339374038902e-05,3.049190712207778,-0.002472000149445819
-4.142339374038902e-05,3.048859662259387,-0.0004695401717538239
-4.139339374038902e-05,3.046873362569039,-0.002472000149445819
-4.136339374038902e-05,3.046873362569039,-0.003806973467907593
-4.133339374038903e-05,3.048528612310995,-0.001804513490215154
-4.130339374038901e-05,3.048859662259387,-0.002805743479061373
-4.127339374038902e-05,3.04720441251743,-0.003806973467907593
-4.124339374038902e-05,3.048528612310995,-0.002472000149445819
-4.121339374038902e-05,3.048859662259387,-0.002805743479061373
-4.118339374038902e-05,3.047866512414213,-0.002138256819830708
-4.115339374038902e-05,3.046211262672256,-0.004474460127138258
-4.112339374038903e-05,3.047866512414213,-0.002805743479061373
-4.109339374038902e-05,3.04720441251743,-0.001804513490215154
-4.106339374038902e-05,3.04720441251743,-0.002805743479061373
-4.103339374038902e-05,3.047866512414213,-0.002805743479061373
-4.100339374038902e-05,3.048197562362604,-0.002472000149445819
-4.097339374038902e-05,3.047866512414213,-0.002472000149445819
-4.094339374038903e-05,3.048528612310995,-0.001137026830984489
-4.091339374038901e-05,3.049852812104561,-0.0008032835013689343
-4.088339374038902e-05,3.04720441251743,-0.002805743479061373
-4.085339374038902e-05,3.04720441251743,-0.003806973467907593
-4.082339374038902e-05,3.048859662259387,-0.002472000149445819
-4.079339374038902e-05,3.048197562362604,-0.004140716797522703
-4.076339374038902e-05,3.048528612310995,-0.003473230138292038
-4.073339374038903e-05,3.047866512414213,-0.002472000149445819
-4.070339374038901e-05,3.047866512414213,-0.004808203456753368
-4.067339374038902e-05,3.04720441251743,-0.003806973467907593
-4.064339374038902e-05,3.048197562362604,-0.002472000149445819
-4.061339374038902e-05,3.048197562362604,-0.001470770160600043
-4.058339374038902e-05,3.047535462465822,-0.002138256819830708
-4.055339374038902e-05,3.046873362569039,-0.003806973467907593
-4.052339374038903e-05,3.048528612310995,-0.002805743479061373
-4.049339374038901e-05,3.048528612310995,-0.002472000149445819
-4.046339374038902e-05,3.048528612310995,-0.002805743479061373
-4.043339374038902e-05,3.048859662259387,-0.001804513490215154
-4.040339374038902e-05,3.047866512414213,-0.002138256819830708
-4.037339374038902e-05,3.047866512414213,-0.003473230138292038
-4.034339374038902e-05,3.048197562362604,-0.001804513490215154
-4.031339374038903e-05,3.049190712207778,-0.001470770160600043
-4.028339374038901e-05,3.048197562362604,-0.002472000149445819
-4.025339374038902e-05,3.048859662259387,-0.002138256819830708
-4.022339374038902e-05,3.048197562362604,-0.002138256819830708
-4.019339374038902e-05,3.048197562362604,-0.004140716797522703
-4.016339374038902e-05,3.047866512414213,-0.003806973467907593
-4.013339374038902e-05,3.048197562362604,-0.001804513490215154
-4.010339374038903e-05,3.047866512414213,-0.002138256819830708
-4.007339374038901e-05,3.04720441251743,-0.003139486808676928
-4.004339374038902e-05,3.048859662259387,-0.004140716797522703
-4.001339374038902e-05,3.048197562362604,-0.002138256819830708
-3.998339374038902e-05,3.048528612310995,-0.002805743479061373
-3.995339374038902e-05,3.04952176215617,-0.001470770160600043
-3.992339374038902e-05,3.048859662259387,-0.002472000149445819
-3.989339374038903e-05,3.04720441251743,-0.004474460127138258
-3.986339374038902e-05,3.048197562362604,-0.004474460127138258
-3.983339374038902e-05,3.049852812104561,-0.001470770160600043
-3.980339374038902e-05,3.049190712207778,-0.001137026830984489
-3.977339374038902e-05,3.048197562362604,-0.002138256819830708
-3.974339374038902e-05,3.047866512414213,-0.004140716797522703
-3.971339374038902e-05,3.048197562362604,-0.003139486808676928
-3.968339374038901e-05,3.047535462465822,-0.002138256819830708
-3.965339374038902e-05,3.047866512414213,-0.002805743479061373
-3.962339374038902e-05,3.048528612310995,-0.002805743479061373
-3.959339374038902e-05,3.04720441251743,-0.003139486808676928
-3.956339374038902e-05,3.048528612310995,-0.004140716797522703
-3.953339374038902e-05,3.047866512414213,-0.003139486808676928
-3.950339374038903e-05,3.048859662259387,-0.002472000149445819
-3.947339374038901e-05,3.047866512414213,-0.002472000149445819
-3.944339374038902e-05,3.047866512414213,-0.002138256819830708
-3.941339374038902e-05,3.048528612310995,-0.002472000149445819
-3.938339374038902e-05,3.047866512414213,-0.004474460127138258
-3.935339374038902e-05,3.047866512414213,-0.004808203456753368
-3.932339374038902e-05,3.048859662259387,-0.002472000149445819
-3.929339374038903e-05,3.04720441251743,-0.002805743479061373
-3.926339374038901e-05,3.04720441251743,-0.002805743479061373
-3.923339374038902e-05,3.047535462465822,-0.003139486808676928
-3.920339374038902e-05,3.046873362569039,-0.004474460127138258
-3.917339374038902e-05,3.047866512414213,-0.003473230138292038
-3.914339374038902e-05,3.049190712207778,-0.001470770160600043
-3.911339374038902e-05,3.048528612310995,-0.001470770160600043
-3.908339374038903e-05,3.047535462465822,-0.003473230138292038
-3.905339374038901e-05,3.048859662259387,-0.005141946786368923
-3.902339374038902e-05,3.049190712207778,-0.002138256819830708
-3.899339374038902e-05,3.049852812104561,-0.001804513490215154
-3.896339374038902e-05,3.048528612310995,-0.002138256819830708
-3.893339374038902e-05,3.047866512414213,-0.003139486808676928
-3.890339374038902e-05,3.04720441251743,-0.003806973467907593
-3.887339374038903e-05,3.048197562362604,-0.004474460127138258
-3.884339374038901e-05,3.048197562362604,-0.002805743479061373
-3.881339374038902e-05,3.048197562362604,-0.001804513490215154
-3.878339374038902e-05,3.048197562362604,-0.002805743479061373
-3.875339374038902e-05,3.047535462465822,-0.002472000149445819
-3.872339374038902e-05,3.047535462465822,-0.003473230138292038
-3.869339374038902e-05,3.048528612310995,-0.003139486808676928
-3.866339374038903e-05,3.048859662259387,-0.002805743479061373
-3.863339374038901e-05,3.048528612310995,-0.002472000149445819
-3.860339374038902e-05,3.047535462465822,-0.002805743479061373
-3.857339374038902e-05,3.04720441251743,-0.003473230138292038
-3.854339374038902e-05,3.048197562362604,-0.002138256819830708
-3.851339374038902e-05,3.04720441251743,-0.002472000149445819
-3.848339374038902e-05,3.047866512414213,-0.003473230138292038
-3.845339374038901e-05,3.049190712207778,-0.001804513490215154
-3.842339374038902e-05,3.048197562362604,-0.003473230138292038
-3.839339374038902e-05,3.047535462465822,-0.004140716797522703
-3.836339374038902e-05,3.048859662259387,-0.003473230138292038
-3.833339374038902e-05,3.049190712207778,-0.0008032835013689343
-3.830339374038902e-05,3.048197562362604,-0.002805743479061373
-3.827339374038903e-05,3.047866512414213,-0.002472000149445819
-3.824339374038901e-05,3.046873362569039,-0.003139486808676928
-3.821339374038902e-05,3.047535462465822,-0.003473230138292038
-3.818339374038902e-05,3.048528612310995,-0.001137026830984489
-3.815339374038902e-05,3.048859662259387,-0.001804513490215154
-3.812339374038902e-05,3.048859662259387,-0.003139486808676928
-3.809339374038902e-05,3.047535462465822,-0.004474460127138258
-3.806339374038903e-05,3.048197562362604,-0.003473230138292038
-3.803339374038901e-05,3.04952176215617,-0.001470770160600043
-3.800339374038902e-05,3.04952176215617,-0.001804513490215154
-3.797339374038902e-05,3.048197562362604,-0.002472000149445819
-3.794339374038902e-05,3.049190712207778,-0.003139486808676928
-3.791339374038902e-05,3.047535462465822,-0.003139486808676928
-3.788339374038902e-05,3.048197562362604,-0.002805743479061373
-3.785339374038903e-05,3.049852812104561,-0.0004695401717538239
-3.782339374038901e-05,3.048528612310995,-0.002138256819830708
-3.779339374038902e-05,3.047535462465822,-0.004474460127138258
-3.776339374038902e-05,3.049190712207778,-0.001137026830984489
-3.773339374038902e-05,3.049190712207778,-0.001804513490215154
-3.770339374038902e-05,3.048197562362604,-0.003473230138292038
-3.767339374038902e-05,3.048528612310995,-0.003139486808676928
-3.764339374038903e-05,3.048859662259387,-0.001470770160600043
-3.761339374038901e-05,3.047535462465822,-0.003806973467907593
-3.758339374038902e-05,3.047535462465822,-0.003806973467907593
-3.755339374038902e-05,3.049190712207778,-0.001804513490215154
-3.752339374038902e-05,3.049852812104561,-0.001804513490215154
-3.749339374038902e-05,3.047866512414213,-0.002472000149445819
-3.746339374038902e-05,3.048528612310995,-0.001137026830984489
-3.743339374038903e-05,3.047535462465822,-0.004140716797522703
-3.740339374038901e-05,3.047535462465822,-0.003473230138292038
-3.737339374038902e-05,3.048528612310995,-0.003139486808676928
-3.734339374038902e-05,3.048859662259387,-0.0008032835013689343
-3.731339374038902e-05,3.047535462465822,-0.003139486808676928
-3.728339374038902e-05,3.046542312620648,-0.004140716797522703
-3.725339374038902e-05,3.04720441251743,-0.002472000149445819
-3.722339374038903e-05,3.048197562362604,-0.002138256819830708
-3.719339374038902e-05,3.048859662259387,-0.001804513490215154
-3.716339374038902e-05,3.048197562362604,-0.0008032835013689343
-3.713339374038902e-05,3.047535462465822,-0.003473230138292038
-3.710339374038902e-05,3.048528612310995,-0.004140716797522703
-3.707339374038902e-05,3.049190712207778,-0.002472000149445819
-3.704339374038903e-05,3.049190712207778,-0.0008032835013689343
-3.701339374038901e-05,3.046873362569039,-0.003806973467907593
-3.698339374038902e-05,3.04720441251743,-0.002138256819830708
-3.695339374038902e-05,3.047535462465822,-0.002138256819830708
-3.692339374038902e-05,3.046873362569039,-0.002805743479061373
-3.689339374038902e-05,3.047535462465822,-0.003806973467907593
-3.686339374038902e-05,3.048197562362604,-0.002138256819830708
-3.683339374038903e-05,3.048859662259387,-0.001470770160600043
-3.680339374038901e-05,3.046873362569039,-0.001804513490215154
-3.677339374038902e-05,3.048528612310995,-0.002472000149445819
-3.674339374038902e-05,3.048197562362604,-0.001470770160600043
-3.671339374038902e-05,3.047866512414213,-0.001804513490215154
-3.668339374038902e-05,3.048197562362604,-0.001137026830984489
-3.665339374038902e-05,3.047866512414213,-0.001137026830984489
-3.662339374038903e-05,3.04720441251743,-0.003139486808676928
-3.659339374038901e-05,3.047535462465822,-0.003139486808676928
-3.656339374038902e-05,3.048528612310995,-0.002472000149445819
-3.653339374038902e-05,3.047535462465822,-0.001470770160600043
-3.650339374038902e-05,3.04720441251743,-0.001804513490215154
-3.647339374038902e-05,3.046873362569039,-0.002472000149445819
-3.644339374038902e-05,3.04720441251743,-0.003806973467907593
-3.641339374038903e-05,3.047535462465822,-0.003806973467907593
-3.638339374038901e-05,3.048528612310995,-0.0008032835013689343
-3.635339374038902e-05,3.048197562362604,-0.0008032835013689343
-3.632339374038902e-05,3.046542312620648,-0.002805743479061373
-3.629339374038902e-05,3.047535462465822,-0.003473230138292038
-3.626339374038902e-05,3.047866512414213,-0.001470770160600043
-3.623339374038902e-05,3.047866512414213,-0.001470770160600043
-3.620339374038903e-05,3.048528612310995,-0.002805743479061373
-3.617339374038901e-05,3.048528612310995,-0.001804513490215154
-3.614339374038902e-05,3.04720441251743,-0.002805743479061373
-3.611339374038902e-05,3.04720441251743,-0.002805743479061373
-3.608339374038902e-05,3.048197562362604,-0.001804513490215154
-3.605339374038902e-05,3.04720441251743,-0.001470770160600043
-3.602339374038902e-05,3.046542312620648,-0.003473230138292038
-3.599339374038903e-05,3.048197562362604,-0.002805743479061373
-3.596339374038902e-05,3.047535462465822,-0.002138256819830708
-3.593339374038902e-05,3.04720441251743,-0.003139486808676928
-3.590339374038902e-05,3.047535462465822,-0.002805743479061373
-3.587339374038902e-05,3.048528612310995,-0.001137026830984489
-3.584339374038902e-05,3.048197562362604,-0.002472000149445819
-3.581339374038903e-05,3.04720441251743,-0.003139486808676928
-3.578339374038901e-05,3.047866512414213,-0.002472000149445819
-3.575339374038902e-05,3.048197562362604,-0.002472000149445819
-3.572339374038902e-05,3.04720441251743,-0.002805743479061373
-3.569339374038902e-05,3.048859662259387,-0.001137026830984489
-3.566339374038902e-05,3.048197562362604,-0.002138256819830708
-3.563339374038902e-05,3.046873362569039,-0.005141946786368923
-3.560339374038903e-05,3.048197562362604,-0.002138256819830708
-3.557339374038901e-05,3.049852812104561,-0.0008032835013689343
-3.554339374038902e-05,3.048859662259387,-0.001137026830984489
-3.551339374038902e-05,3.048197562362604,-0.001804513490215154
-3.548339374038902e-05,3.048197562362604,-0.002805743479061373
-3.545339374038902e-05,3.047866512414213,-0.002805743479061373
-3.542339374038902e-05,3.04720441251743,-0.003139486808676928
-3.539339374038903e-05,3.048528612310995,-0.002138256819830708
-3.536339374038901e-05,3.048528612310995,-0.002138256819830708
-3.533339374038902e-05,3.046873362569039,-0.004474460127138258
-3.530339374038902e-05,3.04720441251743,-0.003806973467907593
-3.527339374038902e-05,3.048528612310995,-0.002138256819830708
-3.524339374038902e-05,3.048197562362604,-0.003473230138292038
-3.521339374038902e-05,3.048528612310995,-0.003139486808676928
-3.518339374038903e-05,3.049190712207778,-0.003139486808676928
-3.515339374038901e-05,3.047866512414213,-0.004474460127138258
-3.512339374038902e-05,3.047866512414213,-0.003806973467907593
-3.509339374038902e-05,3.048859662259387,-0.001137026830984489
-3.506339374038902e-05,3.048528612310995,-0.002472000149445819
-3.503339374038902e-05,3.04720441251743,-0.003139486808676928
-3.500339374038902e-05,3.048528612310995,-0.003139486808676928
-3.497339374038903e-05,3.047866512414213,-0.003806973467907593
-3.494339374038901e-05,3.04720441251743,-0.004474460127138258
-3.491339374038902e-05,3.048197562362604,-0.004474460127138258
-3.488339374038902e-05,3.048859662259387,-0.001137026830984489
-3.485339374038902e-05,3.047866512414213,-0.002472000149445819
-3.482339374038902e-05,3.046211262672256,-0.004474460127138258
-3.479339374038902e-05,3.047866512414213,-0.003473230138292038
-3.476339374038903e-05,3.048859662259387,-0.002138256819830708
-3.473339374038902e-05,3.048528612310995,-0.002472000149445819
-3.470339374038902e-05,3.047535462465822,-0.002138256819830708
-3.467339374038902e-05,3.047535462465822,-0.004140716797522703
-3.464339374038902e-05,3.047535462465822,-0.004808203456753368
-3.461339374038902e-05,3.048197562362604,-0.003473230138292038
-3.458339374038902e-05,3.048197562362604,-0.002472000149445819
-3.455339374038901e-05,3.048197562362604,-0.003806973467907593
-3.452339374038902e-05,3.047535462465822,-0.004474460127138258
-3.449339374038902e-05,3.046211262672256,-0.005809433445599588
-3.446339374038902e-05,3.047866512414213,-0.003139486808676928
-3.443339374038902e-05,3.048197562362604,-0.003473230138292038
-3.440339374038902e-05,3.047535462465822,-0.003473230138292038
-3.437339374038903e-05,3.047866512414213,-0.002472000149445819
-3.434339374038901e-05,3.047535462465822,-0.003806973467907593
-3.431339374038902e-05,3.047866512414213,-0.002472000149445819
-3.428339374038902e-05,3.048197562362604,-0.0008032835013689343
-3.425339374038902e-05,3.047866512414213,-0.002805743479061373
-3.422339374038902e-05,3.046873362569039,-0.002138256819830708
-3.419339374038902e-05,3.046873362569039,-0.003139486808676928
-3.416339374038903e-05,3.046211262672256,-0.004808203456753368
-3.413339374038901e-05,3.046542312620648,-0.004474460127138258
-3.410339374038902e-05,3.048197562362604,-0.002805743479061373
-3.407339374038902e-05,3.047535462465822,-0.002805743479061373
-3.404339374038902e-05,3.047535462465822,-0.003139486808676928
-3.401339374038902e-05,3.04720441251743,-0.003139486808676928
-3.398339374038902e-05,3.047866512414213,-0.003473230138292038
-3.395339374038903e-05,3.047866512414213,-0.002138256819830708
-3.392339374038901e-05,3.048528612310995,-0.002138256819830708
-3.389339374038902e-05,3.048528612310995,-0.0004695401717538239
-3.386339374038902e-05,3.047535462465822,-0.002472000149445819
-3.383339374038902e-05,3.04720441251743,-0.003473230138292038
-3.380339374038902e-05,3.047535462465822,-0.002805743479061373
-3.377339374038902e-05,3.048859662259387,-0.001804513490215154
-3.374339374038903e-05,3.048528612310995,-0.002472000149445819
-3.371339374038901e-05,3.04720441251743,-0.002138256819830708
-3.368339374038902e-05,3.047866512414213,-0.003806973467907593
